%!PS-Adobe-2.0 EPSF-2.0
%%Title: arbreBsept.fig
%%Creator: fig2dev Version 3.2 Patchlevel 5-alpha5
%%CreationDate: Thu Sep  9 18:17:57 2004
%%For: philippe@pc (Philippe Rigaux)
%%BoundingBox: 0 0 371 155
%Magnification: 1.0000
%%EndComments
/$F2psDict 200 dict def
$F2psDict begin
$F2psDict /mtrx matrix put
/col-1 {0 setgray} bind def
/col0 {0.000 0.000 0.000 srgb} bind def
/col1 {0.000 0.000 1.000 srgb} bind def
/col2 {0.000 1.000 0.000 srgb} bind def
/col3 {0.000 1.000 1.000 srgb} bind def
/col4 {1.000 0.000 0.000 srgb} bind def
/col5 {1.000 0.000 1.000 srgb} bind def
/col6 {1.000 1.000 0.000 srgb} bind def
/col7 {1.000 1.000 1.000 srgb} bind def
/col8 {0.000 0.000 0.560 srgb} bind def
/col9 {0.000 0.000 0.690 srgb} bind def
/col10 {0.000 0.000 0.820 srgb} bind def
/col11 {0.530 0.810 1.000 srgb} bind def
/col12 {0.000 0.560 0.000 srgb} bind def
/col13 {0.000 0.690 0.000 srgb} bind def
/col14 {0.000 0.820 0.000 srgb} bind def
/col15 {0.000 0.560 0.560 srgb} bind def
/col16 {0.000 0.690 0.690 srgb} bind def
/col17 {0.000 0.820 0.820 srgb} bind def
/col18 {0.560 0.000 0.000 srgb} bind def
/col19 {0.690 0.000 0.000 srgb} bind def
/col20 {0.820 0.000 0.000 srgb} bind def
/col21 {0.560 0.000 0.560 srgb} bind def
/col22 {0.690 0.000 0.690 srgb} bind def
/col23 {0.820 0.000 0.820 srgb} bind def
/col24 {0.500 0.190 0.000 srgb} bind def
/col25 {0.630 0.250 0.000 srgb} bind def
/col26 {0.750 0.380 0.000 srgb} bind def
/col27 {1.000 0.500 0.500 srgb} bind def
/col28 {1.000 0.630 0.630 srgb} bind def
/col29 {1.000 0.750 0.750 srgb} bind def
/col30 {1.000 0.880 0.880 srgb} bind def
/col31 {1.000 0.840 0.000 srgb} bind def

end
save
newpath 0 155 moveto 0 0 lineto 371 0 lineto 371 155 lineto closepath clip newpath
-3.8 158.2 translate
1 -1 scale

/cp {closepath} bind def
/ef {eofill} bind def
/gr {grestore} bind def
/gs {gsave} bind def
/sa {save} bind def
/rs {restore} bind def
/l {lineto} bind def
/m {moveto} bind def
/rm {rmoveto} bind def
/n {newpath} bind def
/s {stroke} bind def
/sh {show} bind def
/slc {setlinecap} bind def
/slj {setlinejoin} bind def
/slw {setlinewidth} bind def
/srgb {setrgbcolor} bind def
/rot {rotate} bind def
/sc {scale} bind def
/sd {setdash} bind def
/ff {findfont} bind def
/sf {setfont} bind def
/scf {scalefont} bind def
/sw {stringwidth} bind def
/tr {translate} bind def
/tnt {dup dup currentrgbcolor
  4 -2 roll dup 1 exch sub 3 -1 roll mul add
  4 -2 roll dup 1 exch sub 3 -1 roll mul add
  4 -2 roll dup 1 exch sub 3 -1 roll mul add srgb}
  bind def
/shd {dup dup currentrgbcolor 4 -2 roll mul 4 -2 roll mul
  4 -2 roll mul srgb} bind def
/$F2psBegin {$F2psDict begin /$F2psEnteredState save def} def
/$F2psEnd {$F2psEnteredState restore end} def

$F2psBegin
10 setmiterlimit
0 slj 0 slc
 0.06000 0.06000 sc
%
% Fig objects follow
%
% 
% here starts figure with depth 0
% Polyline
0 slj
0 slc
7.500 slw
n 525 825 m 2325 825 l 2325 1200 l 525 1200 l
 cp gs col-1 s gr 
% Polyline
n 3750 825 m 5625 825 l 5625 1200 l 3750 1200 l
 cp gs col-1 s gr 
% Polyline
n 2475 75 m 3375 75 l 3375 300 l 2475 300 l
 cp gs col-1 s gr 
% Polyline
n 975 1725 m 1800 1725 l 1800 2625 l 975 2625 l
 cp gs col-1 s gr 
% Polyline
n 2100 1725 m 2925 1725 l 2925 2625 l 2100 2625 l
 cp gs col-1 s gr 
% Polyline
n 4425 1725 m 5250 1725 l 5250 2625 l 4425 2625 l
 cp gs col-1 s gr 
% Polyline
n 5400 1725 m 6225 1725 l 6225 2625 l 5400 2625 l
 cp gs col-1 s gr 
% Polyline
n 3300 1725 m 4125 1725 l 4125 2625 l 3300 2625 l
 cp gs col-1 s gr 
% Polyline
n 75 1725 m 825 1725 l 825 2625 l 75 2625 l
 cp gs col-1 s gr 
% Polyline
n 600 1125 m
 300 1725 l gs col-1 s gr 
% Polyline
n 1275 1125 m
 1275 1725 l gs col-1 s gr 
% Polyline
n 2175 1125 m
 2475 1725 l gs col-1 s gr 
% Polyline
n 2775 300 m
 1500 825 l gs col-1 s gr 
% Polyline
n 3150 300 m
 4575 825 l gs col-1 s gr 
% Polyline
n 3900 1200 m
 3525 1725 l gs col-1 s gr 
% Polyline
n 4650 1200 m
 4650 1725 l gs col-1 s gr 
% Polyline
n 5550 1200 m
 5925 1725 l gs col-1 s gr 
/Times-Roman ff 200.00 scf sf
2700 225 m
gs 1 -1 sc (Indre) col-1 sh gr
/Times-Roman ff 200.00 scf sf
150 2025 m
gs 1 -1 sc (Allier) col-1 sh gr
/Times-Roman ff 200.00 scf sf
1050 2025 m
gs 1 -1 sc (Aveyron) col-1 sh gr
/Times-Roman ff 200.00 scf sf
1050 2325 m
gs 1 -1 sc (Cantal) col-1 sh gr
/Times-Roman ff 200.00 scf sf
2325 2025 m
gs 1 -1 sc (Cher) col-1 sh gr
/Times-Roman ff 200.00 scf sf
2325 2325 m
gs 1 -1 sc (Doubs) col-1 sh gr
/Times-Roman ff 200.00 scf sf
3525 2025 m
gs 1 -1 sc (Jura) col-1 sh gr
/Times-Roman ff 200.00 scf sf
5550 2025 m
gs 1 -1 sc (Savoie) col-1 sh gr
/Times-Roman ff 200.00 scf sf
5550 2325 m
gs 1 -1 sc (Tarn) col-1 sh gr
/Times-Roman ff 200.00 scf sf
4575 2025 m
gs 1 -1 sc (Lot) col-1 sh gr
/Times-Roman ff 200.00 scf sf
4575 2325 m
gs 1 -1 sc (Marne) col-1 sh gr
/Times-Roman ff 200.00 scf sf
4800 1050 m
gs 1 -1 sc (Meuse) col-1 sh gr
/Times-Roman ff 200.00 scf sf
1500 1050 m
gs 1 -1 sc (Calvados) col-1 sh gr
/Times-Roman ff 200.00 scf sf
675 1050 m
gs 1 -1 sc (Aude) col-1 sh gr
/Times-Roman ff 200.00 scf sf
3975 1050 m
gs 1 -1 sc (Loire) col-1 sh gr
/Times-Roman ff 200.00 scf sf
150 2325 m
gs 1 -1 sc (Ariege) col-1 sh gr
/Times-Roman ff 200.00 scf sf
3375 2325 m
gs 1 -1 sc (Landes) col-1 sh gr
% here ends figure;
$F2psEnd
rs
showpage
%%Trailer
%EOF
