#FIG 3.1
Portrait
Center
Inches
1200 2
6 2176 826 6151 3676
6 3151 1576 4951 1876
4 0 -1 0 0 0 12 0.0000000 4 180 885 3151 1876 Repartiteur (\001
4 0 -1 0 0 0 12 0.0000000 4 165 60 4876 1876 )\001
4 0 -1 0 0 1 12 0.0000000 4 135 705 4126 1876 Scheduler\001
-6
2 2 0 1 -1 -1 0 0 -1 0.000 0 0 0 0 0 5
	 5701 1351 5701 976 2551 976 2551 1351 5701 1351
2 2 0 1 -1 -1 0 0 -1 0.000 0 0 0 0 0 5
	 5701 2776 5701 2401 2551 2401 2551 2776 5701 2776
2 2 0 1 -1 -1 0 0 -1 0.000 0 0 0 0 0 5
	 5701 3526 5701 3151 2551 3151 2551 3526 5701 3526
2 2 0 1 -1 -1 0 0 -1 0.000 0 0 0 0 0 5
	 5701 2026 5701 1651 2551 1651 2551 2026 5701 2026
2 4 0 1 -1 -1 0 0 -1 0.000 0 0 7 0 0 5
	 6151 2176 6151 826 2176 826 2176 2176 6151 2176
2 4 0 1 -1 -1 0 0 -1 0.000 0 0 7 0 0 5
	 6151 3676 6151 2251 2176 2251 2176 3676 6151 3676
4 0 -1 0 0 0 12 0.0000000 4 135 2070 3001 1201 Gestionnaire des transactions\001
4 0 -1 0 0 -1 12 0.0000000 4 180 2175 3001 2626 Gestionnaire des récuperations\001
4 0 -1 0 0 -1 12 0.0000000 4 135 1080 3526 3376 Mémoire cache\001
-6
6 451 1276 2101 1876
4 0 -1 0 0 -1 12 0.0000000 4 135 780 451 1576 MODULE\001
4 0 -1 0 0 -1 12 0.0000000 4 135 1635 451 1861 TRANSACTIONNEL\001
-6
6 451 2701 1876 3301
4 0 -1 0 0 -1 12 0.0000000 4 135 1380 451 3001 GESTIONNAIRE \001
4 0 -1 0 0 -1 12 0.0000000 4 135 1140 451 3286 DE DONNEES\001
-6
6 3601 4126 4726 5251
1 1 0 1 -1 -1 0 0 -1 0.0000000 1 0.000 4126 4276 525 150 4126 4276 4651 4426
1 1 0 1 -1 -1 0 0 -1 0.0000000 1 0.000 4126 5026 525 150 4126 5026 4651 5176
2 1 0 1 -1 -1 0 0 -1 0.000 0 0 -1 0 0 2
	 3601 4276 3601 5101
2 1 0 1 -1 -1 0 0 -1 0.000 0 0 -1 0 0 2
	 4651 4276 4651 5026
-6
2 1 0 1 -1 -1 0 0 -1 0.000 0 0 -1 1 0 2
	0 0 1.00 75.00 135.00
	 3451 676 3601 976
2 1 0 1 -1 -1 0 0 -1 0.000 0 0 -1 1 0 2
	0 0 1.00 75.00 135.00
	 3826 3526 3826 4651
2 1 0 1 -1 -1 0 0 -1 0.000 0 0 -1 0 1 2
	0 0 1.00 75.00 135.00
	 4201 3526 4201 4651
2 1 0 1 -1 -1 0 0 -1 0.000 0 0 -1 0 1 2
	0 0 1.00 75.00 135.00
	 4201 2776 4201 3151
2 1 0 1 -1 -1 0 0 -1 0.000 0 0 -1 0 1 2
	0 0 1.00 75.00 135.00
	 4126 2026 4126 2401
2 1 0 1 -1 -1 0 0 -1 0.000 0 0 -1 0 1 2
	0 0 1.00 75.00 135.00
	 4126 1351 4126 1651
2 1 0 1 -1 -1 0 0 -1 0.000 0 0 -1 1 0 2
	0 0 1.00 75.00 135.00
	 3601 1351 3601 1651
2 1 0 1 -1 -1 0 0 -1 0.000 0 0 -1 1 0 2
	0 0 1.00 75.00 135.00
	 3601 2026 3601 2401
2 1 0 1 -1 -1 0 0 -1 0.000 0 0 -1 1 0 2
	0 0 1.00 75.00 135.00
	 3601 2776 3601 3151
3 2 0 1 -1 -1 0 0 -1 0.000 0 1 0 3
	0 0 1.00 75.00 135.00
	 5176 601 4576 751 4351 976
	 316.00 541.00 4826.00 656.88 4676.00 694.38 4524.55 780.13
	 4468.30 836.38 316.00 541.00
3 2 0 1 -1 -1 0 0 -1 0.000 0 1 0 3
	0 0 1.00 75.00 135.00
	 2326 601 2926 751 3151 976
	 316.00 541.00 2675.99 656.88 2825.99 694.38 2977.45 780.13
	 3033.70 836.38 316.00 541.00
4 0 -1 0 0 -1 10 0.0000000 4 105 810 1575 525 Transaction 1\001
4 0 -1 0 0 -1 10 0.0000000 4 105 810 3000 525 Transaction 2\001
4 0 -1 0 0 -1 10 0.0000000 4 105 810 5025 525 Transaction n\001
4 0 -1 0 0 -1 12 0.0000000 4 180 510 4801 4726 Disque\001
