%!PS-Adobe-2.0 EPSF-2.0
%%Title: archi-cgi.fig
%%Creator: fig2dev Version 3.1 Patchlevel 2
%%CreationDate: Fri Dec  3 14:42:40 1999
%%For: rigaux@vespucci (Philippe Rigaux)
%Magnification: 1.00
%%Orientation: Portrait
%%BoundingBox: 0 0 290 102
%%Pages: 0
%%BeginSetup
%%IncludeFeature: *PageSize A4
%%EndSetup
%%EndComments
/$F2psDict 200 dict def
$F2psDict begin
$F2psDict /mtrx matrix put
/col-1 {0 setgray} bind def
/col0 {0.000 0.000 0.000 srgb} bind def
/col1 {0.000 0.000 1.000 srgb} bind def
/col2 {0.000 1.000 0.000 srgb} bind def
/col3 {0.000 1.000 1.000 srgb} bind def
/col4 {1.000 0.000 0.000 srgb} bind def
/col5 {1.000 0.000 1.000 srgb} bind def
/col6 {1.000 1.000 0.000 srgb} bind def
/col7 {1.000 1.000 1.000 srgb} bind def
/col8 {0.000 0.000 0.560 srgb} bind def
/col9 {0.000 0.000 0.690 srgb} bind def
/col10 {0.000 0.000 0.820 srgb} bind def
/col11 {0.530 0.810 1.000 srgb} bind def
/col12 {0.000 0.560 0.000 srgb} bind def
/col13 {0.000 0.690 0.000 srgb} bind def
/col14 {0.000 0.820 0.000 srgb} bind def
/col15 {0.000 0.560 0.560 srgb} bind def
/col16 {0.000 0.690 0.690 srgb} bind def
/col17 {0.000 0.820 0.820 srgb} bind def
/col18 {0.560 0.000 0.000 srgb} bind def
/col19 {0.690 0.000 0.000 srgb} bind def
/col20 {0.820 0.000 0.000 srgb} bind def
/col21 {0.560 0.000 0.560 srgb} bind def
/col22 {0.690 0.000 0.690 srgb} bind def
/col23 {0.820 0.000 0.820 srgb} bind def
/col24 {0.500 0.190 0.000 srgb} bind def
/col25 {0.630 0.250 0.000 srgb} bind def
/col26 {0.750 0.380 0.000 srgb} bind def
/col27 {1.000 0.500 0.500 srgb} bind def
/col28 {1.000 0.630 0.630 srgb} bind def
/col29 {1.000 0.750 0.750 srgb} bind def
/col30 {1.000 0.880 0.880 srgb} bind def
/col31 {1.000 0.840 0.000 srgb} bind def

end
save
-17.0 123.0 translate
1 -1 scale

/cp {closepath} bind def
/ef {eofill} bind def
/gr {grestore} bind def
/gs {gsave} bind def
/sa {save} bind def
/rs {restore} bind def
/l {lineto} bind def
/m {moveto} bind def
/rm {rmoveto} bind def
/n {newpath} bind def
/s {stroke} bind def
/sh {show} bind def
/slc {setlinecap} bind def
/slj {setlinejoin} bind def
/slw {setlinewidth} bind def
/srgb {setrgbcolor} bind def
/rot {rotate} bind def
/sc {scale} bind def
/sd {setdash} bind def
/ff {findfont} bind def
/sf {setfont} bind def
/scf {scalefont} bind def
/sw {stringwidth} bind def
/tr {translate} bind def
/tnt {dup dup currentrgbcolor
  4 -2 roll dup 1 exch sub 3 -1 roll mul add
  4 -2 roll dup 1 exch sub 3 -1 roll mul add
  4 -2 roll dup 1 exch sub 3 -1 roll mul add srgb}
  bind def
/shd {dup dup currentrgbcolor 4 -2 roll mul 4 -2 roll mul
  4 -2 roll mul srgb} bind def
 /DrawEllipse {
	/endangle exch def
	/startangle exch def
	/yrad exch def
	/xrad exch def
	/y exch def
	/x exch def
	/savematrix mtrx currentmatrix def
	x y tr xrad yrad sc 0 0 1 startangle endangle arc
	closepath
	savematrix setmatrix
	} def

/$F2psBegin {$F2psDict begin /$F2psEnteredState save def} def
/$F2psEnd {$F2psEnteredState restore end} def
%%EndProlog

$F2psBegin
10 setmiterlimit
n 0 842 m 0 0 l 595 0 l 595 842 l cp clip
 0.06000 0.06000 sc
7.500 slw
% Polyline
n 405 375 m 300 375 300 645 105 arcto 4 {pop} repeat
  300 750 1020 750 105 arcto 4 {pop} repeat
  1125 750 1125 480 105 arcto 4 {pop} repeat
  1125 375 405 375 105 arcto 4 {pop} repeat
 cp gs col-1 s gr 
/Times-Roman ff 150.00 scf sf
525 600 m
gs 1 -1 sc (Client) col-1 sh gr
% Polyline
n 405 1425 m 300 1425 300 1695 105 arcto 4 {pop} repeat
  300 1800 1020 1800 105 arcto 4 {pop} repeat
  1125 1800 1125 1530 105 arcto 4 {pop} repeat
  1125 1425 405 1425 105 arcto 4 {pop} repeat
 cp gs col-1 s gr 
/Times-Roman ff 150.00 scf sf
525 1650 m
gs 1 -1 sc (Client) col-1 sh gr
/Times-Roman ff 150.00 scf sf
3150 750 m
gs 1 -1 sc (serveur) col-1 sh gr
/Times-Roman ff 150.00 scf sf
3150 930 m
gs 1 -1 sc (applicatif) col-1 sh gr
/Times-Roman ff 150.00 scf sf
4275 750 m
gs 1 -1 sc (serveur) col-1 sh gr
/Times-Roman ff 150.00 scf sf
4275 930 m
gs 1 -1 sc (SGBD) col-1 sh gr
% Ellipse
n 4575 1500 225 75 0 360 DrawEllipse gs col-1 s gr

% Ellipse
n 4575 1875 225 75 0 360 DrawEllipse gs col-1 s gr

% Polyline
n 4350 1500 m 4350 1875 l gs col-1 s gr 
% Polyline
n 4800 1500 m 4800 1875 l gs col-1 s gr 
/Times-Roman ff 150.00 scf sf
2025 1650 m
gs 1 -1 sc (Pages) col-1 sh gr
/Times-Roman ff 150.00 scf sf
2025 1830 m
gs 1 -1 sc (HTML) col-1 sh gr
% Polyline
n 1905 375 m 1800 375 1800 1920 105 arcto 4 {pop} repeat
  1800 2025 4995 2025 105 arcto 4 {pop} repeat
  5100 2025 5100 480 105 arcto 4 {pop} repeat
  5100 375 1905 375 105 arcto 4 {pop} repeat
 cp gs col-1 s gr 
% Polyline
n 1980 600 m 1875 600 1875 945 105 arcto 4 {pop} repeat
  1875 1050 2595 1050 105 arcto 4 {pop} repeat
  2700 1050 2700 705 105 arcto 4 {pop} repeat
  2700 600 1980 600 105 arcto 4 {pop} repeat
 cp gs col-1 s gr 
% Polyline
n 4230 600 m 4125 600 4125 945 105 arcto 4 {pop} repeat
  4125 1050 4845 1050 105 arcto 4 {pop} repeat
  4950 1050 4950 705 105 arcto 4 {pop} repeat
  4950 600 4230 600 105 arcto 4 {pop} repeat
 cp gs col-1 s gr 
% Polyline
n 3105 600 m 3000 600 3000 945 105 arcto 4 {pop} repeat
  3000 1050 3720 1050 105 arcto 4 {pop} repeat
  3825 1050 3825 705 105 arcto 4 {pop} repeat
  3825 600 3105 600 105 arcto 4 {pop} repeat
 cp gs col-1 s gr 
% Polyline
gs  clippath
2853 795 m 2973 825 l 2853 855 l 3015 855 l 3015 795 l  cp clip
2847 855 m 2727 825 l 2847 795 l 2685 795 l 2685 855 l  cp clip
n 2700 825 m 3000 825 l gs col-1 s gr gr

% arrowhead
n 2847 855 m 2727 825 l 2847 795 l 2847 825 l 2847 855 l  cp gs 0.00 setgray ef gr  col-1 s
% arrowhead
n 2853 795 m 2973 825 l 2853 855 l 2853 825 l 2853 795 l  cp gs 0.00 setgray ef gr  col-1 s
% Polyline
gs  clippath
3978 795 m 4098 825 l 3978 855 l 4140 855 l 4140 795 l  cp clip
3972 855 m 3852 825 l 3972 795 l 3810 795 l 3810 855 l  cp clip
n 3825 825 m 4125 825 l gs col-1 s gr gr

% arrowhead
n 3972 855 m 3852 825 l 3972 795 l 3972 825 l 3972 855 l  cp gs 0.00 setgray ef gr  col-1 s
% arrowhead
n 3978 795 m 4098 825 l 3978 855 l 3978 825 l 3978 795 l  cp gs 0.00 setgray ef gr  col-1 s
% Polyline
gs  clippath
4530 1278 m 4500 1398 l 4470 1278 l 4470 1440 l 4530 1440 l  cp clip
4470 1197 m 4500 1077 l 4530 1197 l 4530 1035 l 4470 1035 l  cp clip
n 4500 1050 m 4500 1425 l gs col-1 s gr gr

% arrowhead
n 4470 1197 m 4500 1077 l 4530 1197 l 4500 1197 l 4470 1197 l  cp gs 0.00 setgray ef gr  col-1 s
% arrowhead
n 4530 1278 m 4500 1398 l 4470 1278 l 4500 1278 l 4530 1278 l  cp gs 0.00 setgray ef gr  col-1 s
% Polyline
n 1275 375 m 1275 1800 l gs col-1 s gr 
% Polyline
n 1575 375 m 1575 1800 l gs col-1 s gr 
% Polyline
n 1050 750 m 1125 1125 l 975 1425 l gs col-1 s gr 
% Polyline
n 1125 1125 m 1275 1125 l gs col-1 s gr 
% Polyline
n 1575 1125 m 1725 1125 l 1650 825 l 1875 825 l gs col-1 s gr 
% Polyline
gs  clippath
2280 1353 m 2250 1473 l 2220 1353 l 2220 1515 l 2280 1515 l  cp clip
2220 1197 m 2250 1077 l 2280 1197 l 2280 1035 l 2220 1035 l  cp clip
n 2250 1050 m 2250 1500 l gs col-1 s gr gr

% arrowhead
n 2220 1197 m 2250 1077 l 2280 1197 l 2250 1197 l 2220 1197 l  cp gs 0.00 setgray ef gr  col-1 s
% arrowhead
n 2280 1353 m 2250 1473 l 2220 1353 l 2250 1353 l 2280 1353 l  cp gs 0.00 setgray ef gr  col-1 s
/Times-Roman ff 150.00 scf sf
675 1125 m
gs 1 -1 sc (...) col-1 sh gr
/Times-Roman ff 150.00 scf sf
2100 825 m
gs 1 -1 sc (httpd) col-1 sh gr
/Times-Roman ff 150.00 scf sf
1500 1200 m
gs 1 -1 sc  90.0 rot (reseau) col-1 sh gr
/Times-Roman ff 150.00 scf sf
4500 1725 m
gs 1 -1 sc (BD) col-1 sh gr
$F2psEnd
rs
