#FIG 3.1
Portrait
Center
Inches
1200 2
6 3150 1350 3600 1650
4 0 -1 0 0 0 10 0.0000 4 75 420 3150 1425 serveur\001
4 0 -1 0 0 0 10 0.0000 4 105 405 3150 1605 SGBD\001
-6
6 4350 1275 4800 1800
1 1 0 1 -1 7 0 0 -1 0.000 1 0.0000 4575 1350 225 75 4575 1350 4800 1425
1 1 0 1 -1 7 0 0 -1 0.000 1 0.0000 4575 1725 225 75 4575 1725 4800 1800
2 1 0 1 -1 7 0 0 -1 0.000 0 0 -1 0 0 2
	 4350 1350 4350 1725
2 1 0 1 -1 7 0 0 -1 0.000 0 0 -1 0 0 2
	 4800 1350 4800 1725
-6
6 4350 450 4800 825
4 0 -1 0 0 0 10 0.0000 4 135 345 4350 600 Pages\001
4 0 -1 0 0 0 10 0.0000 4 105 420 4350 780 HTML\001
-6
6 75 600 1275 1575
6 825 1125 1200 1500
4 0 -1 0 0 0 10 0.0000 4 105 345 825 1275 Acces\001
4 0 -1 0 0 0 10 0.0000 4 105 210 825 1455 BD\001
-6
2 4 0 1 -1 7 0 0 -1 0.000 0 0 7 0 0 5
	 1275 1575 1275 600 75 600 75 1575 1275 1575
2 4 0 1 -1 7 0 0 -1 0.000 0 0 7 0 0 5
	 1275 1575 1275 1125 750 1125 750 1575 1275 1575
4 0 -1 0 0 0 10 0.0000 4 105 375 450 975 Client\001
-6
2 4 0 1 -1 7 0 0 -1 0.000 0 0 7 0 0 5
	 3675 900 3675 450 2850 450 2850 900 3675 900
2 4 0 1 -1 7 0 0 -1 0.000 0 0 7 0 0 5
	 3750 1725 3750 1275 2925 1275 2925 1725 3750 1725
2 1 0 1 -1 7 0 0 -1 0.000 0 0 -1 1 1 2
	1 1 1.00 60.00 120.00
	1 1 1.00 60.00 120.00
	 3675 675 4275 675
2 1 0 1 -1 7 0 0 -1 0.000 0 0 -1 1 1 2
	1 1 1.00 60.00 120.00
	1 1 1.00 60.00 120.00
	 3750 1500 4350 1500
2 4 0 1 -1 7 0 0 -1 0.000 0 0 7 0 0 5
	 5100 2025 5100 375 2775 375 2775 2025 5100 2025
2 1 0 1 -1 7 0 0 -1 0.000 0 0 7 0 0 2
	 2250 375 2250 1875
2 1 0 1 -1 7 0 0 -1 0.000 0 0 7 0 0 2
	 1800 375 1800 1875
2 1 0 1 -1 7 0 0 -1 0.000 0 0 -1 0 0 2
	 1275 750 1800 750
2 1 0 1 -1 7 0 0 -1 0.000 0 0 -1 0 0 2
	 2250 750 2850 750
2 1 0 1 -1 7 0 0 -1 0.000 0 0 -1 0 0 2
	 1275 1425 1800 1425
2 1 0 1 -1 7 0 0 -1 0.000 0 0 -1 0 0 2
	 2250 1425 2925 1425
4 0 -1 0 0 0 10 0.0000 4 135 315 3150 675 httpd\001
4 0 -1 0 0 0 10 0.0000 4 105 210 4500 1575 BD\001
4 0 -1 0 0 0 10 1.5708 4 75 360 2025 1200 reseau\001
