%!PS-Adobe-2.0 EPSF-2.0
%%Title: blocenr4.eps
%%Creator: fig2dev Version 3.2.3 Patchlevel 
%%CreationDate: Wed Mar  6 22:05:50 2002
%%For: rigaux@cartier (Philippe Rigaux)
%%BoundingBox: 0 0 368 143
%%Magnification: 1.0000
%%EndComments
/$F2psDict 200 dict def
$F2psDict begin
$F2psDict /mtrx matrix put
/col-1 {0 setgray} bind def
/col0 {0.000 0.000 0.000 srgb} bind def
/col1 {0.000 0.000 1.000 srgb} bind def
/col2 {0.000 1.000 0.000 srgb} bind def
/col3 {0.000 1.000 1.000 srgb} bind def
/col4 {1.000 0.000 0.000 srgb} bind def
/col5 {1.000 0.000 1.000 srgb} bind def
/col6 {1.000 1.000 0.000 srgb} bind def
/col7 {1.000 1.000 1.000 srgb} bind def
/col8 {0.000 0.000 0.560 srgb} bind def
/col9 {0.000 0.000 0.690 srgb} bind def
/col10 {0.000 0.000 0.820 srgb} bind def
/col11 {0.530 0.810 1.000 srgb} bind def
/col12 {0.000 0.560 0.000 srgb} bind def
/col13 {0.000 0.690 0.000 srgb} bind def
/col14 {0.000 0.820 0.000 srgb} bind def
/col15 {0.000 0.560 0.560 srgb} bind def
/col16 {0.000 0.690 0.690 srgb} bind def
/col17 {0.000 0.820 0.820 srgb} bind def
/col18 {0.560 0.000 0.000 srgb} bind def
/col19 {0.690 0.000 0.000 srgb} bind def
/col20 {0.820 0.000 0.000 srgb} bind def
/col21 {0.560 0.000 0.560 srgb} bind def
/col22 {0.690 0.000 0.690 srgb} bind def
/col23 {0.820 0.000 0.820 srgb} bind def
/col24 {0.500 0.190 0.000 srgb} bind def
/col25 {0.630 0.250 0.000 srgb} bind def
/col26 {0.750 0.380 0.000 srgb} bind def
/col27 {1.000 0.500 0.500 srgb} bind def
/col28 {1.000 0.630 0.630 srgb} bind def
/col29 {1.000 0.750 0.750 srgb} bind def
/col30 {1.000 0.880 0.880 srgb} bind def
/col31 {1.000 0.840 0.000 srgb} bind def

end
save
newpath 0 143 moveto 0 0 lineto 368 0 lineto 368 143 lineto closepath clip newpath
-10.0 153.0 translate
1 -1 scale

/cp {closepath} bind def
/ef {eofill} bind def
/gr {grestore} bind def
/gs {gsave} bind def
/sa {save} bind def
/rs {restore} bind def
/l {lineto} bind def
/m {moveto} bind def
/rm {rmoveto} bind def
/n {newpath} bind def
/s {stroke} bind def
/sh {show} bind def
/slc {setlinecap} bind def
/slj {setlinejoin} bind def
/slw {setlinewidth} bind def
/srgb {setrgbcolor} bind def
/rot {rotate} bind def
/sc {scale} bind def
/sd {setdash} bind def
/ff {findfont} bind def
/sf {setfont} bind def
/scf {scalefont} bind def
/sw {stringwidth} bind def
/tr {translate} bind def
/tnt {dup dup currentrgbcolor
  4 -2 roll dup 1 exch sub 3 -1 roll mul add
  4 -2 roll dup 1 exch sub 3 -1 roll mul add
  4 -2 roll dup 1 exch sub 3 -1 roll mul add srgb}
  bind def
/shd {dup dup currentrgbcolor 4 -2 roll mul 4 -2 roll mul
  4 -2 roll mul srgb} bind def
/reencdict 12 dict def /ReEncode { reencdict begin
/newcodesandnames exch def /newfontname exch def /basefontname exch def
/basefontdict basefontname findfont def /newfont basefontdict maxlength dict def
basefontdict { exch dup /FID ne { dup /Encoding eq
{ exch dup length array copy newfont 3 1 roll put }
{ exch newfont 3 1 roll put } ifelse } { pop pop } ifelse } forall
newfont /FontName newfontname put newcodesandnames aload pop
128 1 255 { newfont /Encoding get exch /.notdef put } for
newcodesandnames length 2 idiv { newfont /Encoding get 3 1 roll put } repeat
newfontname newfont definefont pop end } def
/isovec [
8#055 /minus 8#200 /grave 8#201 /acute 8#202 /circumflex 8#203 /tilde
8#204 /macron 8#205 /breve 8#206 /dotaccent 8#207 /dieresis
8#210 /ring 8#211 /cedilla 8#212 /hungarumlaut 8#213 /ogonek 8#214 /caron
8#220 /dotlessi 8#230 /oe 8#231 /OE
8#240 /space 8#241 /exclamdown 8#242 /cent 8#243 /sterling
8#244 /currency 8#245 /yen 8#246 /brokenbar 8#247 /section 8#250 /dieresis
8#251 /copyright 8#252 /ordfeminine 8#253 /guillemotleft 8#254 /logicalnot
8#255 /hypen 8#256 /registered 8#257 /macron 8#260 /degree 8#261 /plusminus
8#262 /twosuperior 8#263 /threesuperior 8#264 /acute 8#265 /mu 8#266 /paragraph
8#267 /periodcentered 8#270 /cedilla 8#271 /onesuperior 8#272 /ordmasculine
8#273 /guillemotright 8#274 /onequarter 8#275 /onehalf
8#276 /threequarters 8#277 /questiondown 8#300 /Agrave 8#301 /Aacute
8#302 /Acircumflex 8#303 /Atilde 8#304 /Adieresis 8#305 /Aring
8#306 /AE 8#307 /Ccedilla 8#310 /Egrave 8#311 /Eacute
8#312 /Ecircumflex 8#313 /Edieresis 8#314 /Igrave 8#315 /Iacute
8#316 /Icircumflex 8#317 /Idieresis 8#320 /Eth 8#321 /Ntilde 8#322 /Ograve
8#323 /Oacute 8#324 /Ocircumflex 8#325 /Otilde 8#326 /Odieresis 8#327 /multiply
8#330 /Oslash 8#331 /Ugrave 8#332 /Uacute 8#333 /Ucircumflex
8#334 /Udieresis 8#335 /Yacute 8#336 /Thorn 8#337 /germandbls 8#340 /agrave
8#341 /aacute 8#342 /acircumflex 8#343 /atilde 8#344 /adieresis 8#345 /aring
8#346 /ae 8#347 /ccedilla 8#350 /egrave 8#351 /eacute
8#352 /ecircumflex 8#353 /edieresis 8#354 /igrave 8#355 /iacute
8#356 /icircumflex 8#357 /idieresis 8#360 /eth 8#361 /ntilde 8#362 /ograve
8#363 /oacute 8#364 /ocircumflex 8#365 /otilde 8#366 /odieresis 8#367 /divide
8#370 /oslash 8#371 /ugrave 8#372 /uacute 8#373 /ucircumflex
8#374 /udieresis 8#375 /yacute 8#376 /thorn 8#377 /ydieresis] def
/Times-Roman /Times-Roman-iso isovec ReEncode
/$F2psBegin {$F2psDict begin /$F2psEnteredState save def} def
/$F2psEnd {$F2psEnteredState restore end} def

$F2psBegin
%%Page: 1 1
10 setmiterlimit
 0.06299 0.06299 sc
% Polyline
7.500 slw
n 180 1620 m 1980 1620 l 1980 1800 l 180 1800 l
 cp gs col7 0.75 shd ef gr gs col0 s gr 
% Polyline
n 180 1800 m 1980 1800 l 1980 1980 l 180 1980 l
 cp gs col7 0.75 shd ef gr gs col0 s gr 
% Polyline
n 180 1440 m 1980 1440 l 1980 1620 l 180 1620 l
 cp gs col7 0.75 shd ef gr gs col0 s gr 
% Polyline
n 180 1260 m 1980 1260 l 1980 1440 l 180 1440 l
 cp gs col7 0.75 shd ef gr gs col0 s gr 
% Polyline
n 180 1080 m 1980 1080 l 1980 1260 l 180 1260 l
 cp gs col7 0.75 shd ef gr gs col0 s gr 
% Polyline
n 180 900 m 1980 900 l 1980 1080 l 180 1080 l
 cp gs col7 0.75 shd ef gr gs col0 s gr 
% Polyline
n 180 720 m 1980 720 l 1980 900 l 180 900 l
 cp gs col7 0.75 shd ef gr gs col0 s gr 
% Polyline
n 180 540 m 1980 540 l 1980 720 l 180 720 l
 cp gs col7 0.85 shd ef gr gs col0 s gr 
% Polyline
n 2115 1620 m 3915 1620 l 3915 1800 l 2115 1800 l
 cp gs col7 0.75 shd ef gr gs col0 s gr 
% Polyline
n 2115 1800 m 3915 1800 l 3915 1980 l 2115 1980 l
 cp gs col7 0.75 shd ef gr gs col0 s gr 
% Polyline
n 2115 630 m 3915 630 l 3915 810 l 2115 810 l
 cp gs col7 0.75 shd ef gr gs col0 s gr 
% Polyline
n 2115 810 m 3915 810 l 3915 990 l 2115 990 l
 cp gs col7 0.75 shd ef gr gs col0 s gr 
% Polyline
n 2115 990 m 3915 990 l 3915 1170 l 2115 1170 l
 cp gs col7 0.75 shd ef gr gs col0 s gr 
% Polyline
n 2115 1170 m 3915 1170 l 3915 1350 l 2115 1350 l
 cp gs col7 0.75 shd ef gr gs col0 s gr 
% Polyline
n 2115 1350 m 3915 1350 l 3915 1620 l 2115 1620 l
 cp gs col7 0.75 shd ef gr gs col0 s gr 
% Polyline
n 2115 540 m 3915 540 l 3915 630 l 2115 630 l
 cp gs col7 0.85 shd ef gr gs col0 s gr 
% Polyline
n 4050 1620 m 5850 1620 l 5850 1800 l 4050 1800 l
 cp gs col7 0.75 shd ef gr gs col0 s gr 
% Polyline
n 4050 1800 m 5850 1800 l 5850 1980 l 4050 1980 l
 cp gs col7 0.75 shd ef gr gs col0 s gr 
% Polyline
n 4050 1440 m 5850 1440 l 5850 1620 l 4050 1620 l
 cp gs col7 0.75 shd ef gr gs col0 s gr 
% Polyline
n 4050 1260 m 5850 1260 l 5850 1440 l 4050 1440 l
 cp gs col7 0.75 shd ef gr gs col0 s gr 
% Polyline
n 4050 1080 m 5850 1080 l 5850 1260 l 4050 1260 l
 cp gs col7 0.75 shd ef gr gs col0 s gr 
% Polyline
n 4050 900 m 5850 900 l 5850 1080 l 4050 1080 l
 cp gs col7 0.75 shd ef gr gs col0 s gr 
% Polyline
n 4050 540 m 5850 540 l 5850 900 l 4050 900 l
 cp gs col7 0.85 shd ef gr gs col0 s gr 
% Polyline
gs  clippath
6000 795 m 6000 735 l 5849 735 l 5969 765 l 5849 795 l cp
eoclip
n 4590 495 m 4590 765 l
 5985 765 l gs col0 s gr gr

% arrowhead
n 5849 795 m 5969 765 l 5849 735 l 5849 795 l  cp gs 0.00 setgray ef gr  col0 s
/Times-Roman-iso ff 150.00 scf sf
360 2250 m
gs 1 -1 sc (\(a\) Situation initiale) col0 sh gr
/Times-Roman-iso ff 150.00 scf sf
2205 2205 m
gs 1 -1 sc (\(b\) Apr\350s agrandissement de ) col0 sh gr
/Times-Roman-iso ff 150.00 scf sf
2160 2385 m
gs 1 -1 sc (       l'enregistrement 46) col0 sh gr
/Times-Roman-iso ff 150.00 scf sf
4185 2205 m
gs 1 -1 sc (\(c\) D\351placement de ) col0 sh gr
/Times-Roman-iso ff 150.00 scf sf
4140 2385 m
gs 1 -1 sc (       l'enregistrement 46) col0 sh gr
% Polyline
n 180 315 m 1980 315 l 1980 1980 l 180 1980 l
 cp gs col0 s gr 
% Polyline
n 180 315 m 1980 315 l 1980 540 l 180 540 l
 cp gs col0 s gr 
% Polyline
n 810 315 m
 810 540 l gs col0 s gr 
% Polyline
n 585 315 m
 585 540 l gs col0 s gr 
% Polyline
n 405 315 m
 405 540 l gs col0 s gr 
% Polyline
n 990 315 m
 990 540 l gs col0 s gr 
% Polyline
n 1485 315 m
 1485 540 l gs col0 s gr 
% Polyline
n 1665 315 m
 1665 540 l gs col0 s gr 
% Polyline
gs  clippath
240 1365 m 300 1365 l 300 1214 l 270 1334 l 240 1214 l cp
eoclip
n 270 540 m
 270 1350 l gs col0 s gr gr

% arrowhead
n 240 1214 m 270 1334 l 300 1214 l 240 1214 l  cp gs 0.00 setgray ef gr  col0 s
% Polyline
gs  clippath
690 1545 m 750 1545 l 750 1394 l 720 1514 l 690 1394 l cp
eoclip
n 720 540 m
 720 1530 l gs col0 s gr gr

% arrowhead
n 690 1394 m 720 1514 l 750 1394 l 690 1394 l  cp gs 0.00 setgray ef gr  col0 s
/Times-Roman-iso ff 150.00 scf sf
630 495 m
gs 1 -1 sc (46) col0 sh gr
/Times-Roman-iso ff 150.00 scf sf
225 495 m
gs 1 -1 sc (16) col0 sh gr
/Times-Roman-iso ff 150.00 scf sf
1530 495 m
gs 1 -1 sc (57) col0 sh gr
/Times-Roman-iso ff 150.00 scf sf
765 270 m
gs 1 -1 sc (Bloc F1.12) col0 sh gr
% Polyline
n 2115 315 m 3915 315 l 3915 1980 l 2115 1980 l
 cp gs col0 s gr 
% Polyline
n 2115 315 m 3915 315 l 3915 540 l 2115 540 l
 cp gs col0 s gr 
% Polyline
n 2745 315 m
 2745 540 l gs col0 s gr 
% Polyline
n 2520 315 m
 2520 540 l gs col0 s gr 
% Polyline
n 2340 315 m
 2340 540 l gs col0 s gr 
% Polyline
n 2925 315 m
 2925 540 l gs col0 s gr 
% Polyline
n 3420 315 m
 3420 540 l gs col0 s gr 
% Polyline
n 3600 315 m
 3600 540 l gs col0 s gr 
% Polyline
gs  clippath
2175 1275 m 2235 1275 l 2235 1124 l 2205 1244 l 2175 1124 l cp
eoclip
n 2205 540 m
 2205 1260 l gs col0 s gr gr

% arrowhead
n 2175 1124 m 2205 1244 l 2235 1124 l 2175 1124 l  cp gs 0.00 setgray ef gr  col0 s
% Polyline
gs  clippath
2625 1545 m 2685 1545 l 2685 1394 l 2655 1514 l 2625 1394 l cp
eoclip
n 2655 540 m
 2655 1530 l gs col0 s gr gr

% arrowhead
n 2625 1394 m 2655 1514 l 2685 1394 l 2625 1394 l  cp gs 0.00 setgray ef gr  col0 s
/Times-Roman-iso ff 150.00 scf sf
2565 495 m
gs 1 -1 sc (46) col0 sh gr
/Times-Roman-iso ff 150.00 scf sf
2160 495 m
gs 1 -1 sc (16) col0 sh gr
/Times-Roman-iso ff 150.00 scf sf
3465 495 m
gs 1 -1 sc (57) col0 sh gr
/Times-Roman-iso ff 150.00 scf sf
2700 270 m
gs 1 -1 sc (Bloc F1.12) col0 sh gr
% Polyline
n 4050 315 m 5850 315 l 5850 1980 l 4050 1980 l
 cp gs col0 s gr 
% Polyline
n 4050 315 m 5850 315 l 5850 540 l 4050 540 l
 cp gs col0 s gr 
% Polyline
n 4680 315 m
 4680 540 l gs col0 s gr 
% Polyline
n 4455 315 m
 4455 540 l gs col0 s gr 
% Polyline
n 4275 315 m
 4275 540 l gs col0 s gr 
% Polyline
n 4860 315 m
 4860 540 l gs col0 s gr 
% Polyline
n 5355 315 m
 5355 540 l gs col0 s gr 
% Polyline
n 5535 315 m
 5535 540 l gs col0 s gr 
% Polyline
gs  clippath
4110 1500 m 4170 1500 l 4170 1349 l 4140 1469 l 4110 1349 l cp
eoclip
n 4140 540 m
 4140 1485 l gs col0 s gr gr

% arrowhead
n 4110 1349 m 4140 1469 l 4170 1349 l 4110 1349 l  cp gs 0.00 setgray ef gr  col0 s
/Times-Roman-iso ff 150.00 scf sf
4500 495 m
gs 1 -1 sc (46) col0 sh gr
/Times-Roman-iso ff 150.00 scf sf
4095 495 m
gs 1 -1 sc (16) col0 sh gr
/Times-Roman-iso ff 150.00 scf sf
5400 495 m
gs 1 -1 sc (57) col0 sh gr
/Times-Roman-iso ff 150.00 scf sf
4635 270 m
gs 1 -1 sc (Bloc F1.12) col0 sh gr
$F2psEnd
rs
