#FIG 3.2
Portrait
Center
Inches
A4      
100.00
Single
-2
1200 2
6 2625 1650 3450 2475
2 1 0 1 0 7 50 0 -1 0.000 0 0 -1 0 0 2
	 2625 1875 3375 1875
2 4 0 1 -1 7 0 0 -1 0.000 0 0 5 0 0 5
	 3375 2475 3375 1651 2625 1651 2625 2475 3375 2475
4 0 -1 0 0 0 10 0.0000 4 105 315 2775 1800 Salle\001
4 0 -1 0 0 0 10 0.0000 4 150 465 2700 2100 capacit\351\001
4 0 0 50 0 0 10 0.0000 4 105 735 2700 2325 dateConstr.\001
-6
2 1 0 1 -1 7 0 0 -1 0.000 0 0 -1 0 0 2
	 2625 375 3450 375
2 4 0 1 -1 7 0 0 -1 0.000 0 0 7 0 0 5
	 3450 1125 3450 150 2625 150 2625 1125 3450 1125
2 2 0 1 0 7 50 0 -1 0.000 0 0 -1 0 0 5
	 2925 1125 3150 1125 3150 1350 2925 1350 2925 1125
2 1 0 1 0 7 50 0 -1 0.000 0 0 -1 0 0 2
	 3000 1350 3000 1650
2 1 0 1 -1 7 0 0 -1 0.000 0 0 -1 0 0 2
	 600 375 1425 375
2 4 0 1 -1 7 0 0 -1 0.000 0 0 7 0 0 5
	 1425 1125 1425 150 600 150 600 1125 1425 1125
2 1 0 1 0 7 50 0 -1 0.000 0 0 -1 0 0 2
	 975 1125 975 1575
2 1 0 1 0 7 50 0 -1 0.000 0 0 -1 0 0 2
	 600 1800 1350 1800
2 4 0 1 -1 7 0 0 -1 0.000 0 0 5 0 0 5
	 1350 2475 1350 1576 600 1576 600 2475 1350 2475
4 0 -1 0 0 0 10 0.0000 4 150 465 2700 300 Cin\351ma\001
4 0 0 50 0 2 10 0.0000 4 75 300 2700 600 nom\001
4 0 -1 0 0 0 10 0.0000 4 105 300 2700 750 ville\001
4 0 0 50 0 0 10 0.0000 4 75 195 2700 900 rue\001
4 0 0 50 0 0 10 0.0000 4 150 435 2700 1050 num\351ro\001
4 0 0 50 0 2 10 0.0000 4 75 180 2970 1283 no\001
4 0 -1 0 0 0 10 0.0000 4 150 465 675 300 Cin\351ma\001
4 0 0 50 0 2 10 0.0000 4 75 300 675 600 nom\001
4 0 -1 0 0 0 10 0.0000 4 105 300 675 750 ville\001
4 0 0 50 0 0 10 0.0000 4 75 195 675 900 rue\001
4 0 0 50 0 0 10 0.0000 4 150 435 675 1050 num\351ro\001
4 0 -1 0 0 0 10 0.0000 4 105 315 750 1725 Salle\001
4 0 -1 0 0 0 10 0.0000 4 150 465 675 2175 capacit\351\001
4 0 0 50 0 0 10 0.0000 4 105 735 675 2400 dateConstr.\001
4 0 0 50 0 2 10 0.0000 4 120 135 675 1950 id\001
4 0 0 50 0 0 10 0.0000 4 105 75 1050 1275 1\001
4 0 0 50 0 0 10 0.0000 4 45 75 1050 1500 *\001
4 0 0 50 0 0 10 0.0000 4 45 75 3075 1650 *\001
4 0 0 50 0 0 10 0.0000 4 135 180 825 2775 (a)\001
4 0 0 50 0 0 10 0.0000 4 135 195 2925 2775 (b)\001
