%!PS-Adobe-2.0 EPSF-2.0
%%Title: hachage-2.eps
%%Creator: fig2dev Version 3.2.3 Patchlevel 
%%CreationDate: Tue Jun 19 13:16:21 2001
%%For: rigaux@cartier (Philippe Rigaux)
%%BoundingBox: 0 0 316 190
%%Magnification: 1.0000
%%EndComments
/$F2psDict 200 dict def
$F2psDict begin
$F2psDict /mtrx matrix put
/col-1 {0 setgray} bind def
/col0 {0.000 0.000 0.000 srgb} bind def
/col1 {0.000 0.000 1.000 srgb} bind def
/col2 {0.000 1.000 0.000 srgb} bind def
/col3 {0.000 1.000 1.000 srgb} bind def
/col4 {1.000 0.000 0.000 srgb} bind def
/col5 {1.000 0.000 1.000 srgb} bind def
/col6 {1.000 1.000 0.000 srgb} bind def
/col7 {1.000 1.000 1.000 srgb} bind def
/col8 {0.000 0.000 0.560 srgb} bind def
/col9 {0.000 0.000 0.690 srgb} bind def
/col10 {0.000 0.000 0.820 srgb} bind def
/col11 {0.530 0.810 1.000 srgb} bind def
/col12 {0.000 0.560 0.000 srgb} bind def
/col13 {0.000 0.690 0.000 srgb} bind def
/col14 {0.000 0.820 0.000 srgb} bind def
/col15 {0.000 0.560 0.560 srgb} bind def
/col16 {0.000 0.690 0.690 srgb} bind def
/col17 {0.000 0.820 0.820 srgb} bind def
/col18 {0.560 0.000 0.000 srgb} bind def
/col19 {0.690 0.000 0.000 srgb} bind def
/col20 {0.820 0.000 0.000 srgb} bind def
/col21 {0.560 0.000 0.560 srgb} bind def
/col22 {0.690 0.000 0.690 srgb} bind def
/col23 {0.820 0.000 0.820 srgb} bind def
/col24 {0.500 0.190 0.000 srgb} bind def
/col25 {0.630 0.250 0.000 srgb} bind def
/col26 {0.750 0.380 0.000 srgb} bind def
/col27 {1.000 0.500 0.500 srgb} bind def
/col28 {1.000 0.630 0.630 srgb} bind def
/col29 {1.000 0.750 0.750 srgb} bind def
/col30 {1.000 0.880 0.880 srgb} bind def
/col31 {1.000 0.840 0.000 srgb} bind def

end
save
newpath 0 190 moveto 0 0 lineto 316 0 lineto 316 190 lineto closepath clip newpath
-4.0 239.0 translate
1 -1 scale

/cp {closepath} bind def
/ef {eofill} bind def
/gr {grestore} bind def
/gs {gsave} bind def
/sa {save} bind def
/rs {restore} bind def
/l {lineto} bind def
/m {moveto} bind def
/rm {rmoveto} bind def
/n {newpath} bind def
/s {stroke} bind def
/sh {show} bind def
/slc {setlinecap} bind def
/slj {setlinejoin} bind def
/slw {setlinewidth} bind def
/srgb {setrgbcolor} bind def
/rot {rotate} bind def
/sc {scale} bind def
/sd {setdash} bind def
/ff {findfont} bind def
/sf {setfont} bind def
/scf {scalefont} bind def
/sw {stringwidth} bind def
/tr {translate} bind def
/tnt {dup dup currentrgbcolor
  4 -2 roll dup 1 exch sub 3 -1 roll mul add
  4 -2 roll dup 1 exch sub 3 -1 roll mul add
  4 -2 roll dup 1 exch sub 3 -1 roll mul add srgb}
  bind def
/shd {dup dup currentrgbcolor 4 -2 roll mul 4 -2 roll mul
  4 -2 roll mul srgb} bind def
/reencdict 12 dict def /ReEncode { reencdict begin
/newcodesandnames exch def /newfontname exch def /basefontname exch def
/basefontdict basefontname findfont def /newfont basefontdict maxlength dict def
basefontdict { exch dup /FID ne { dup /Encoding eq
{ exch dup length array copy newfont 3 1 roll put }
{ exch newfont 3 1 roll put } ifelse } { pop pop } ifelse } forall
newfont /FontName newfontname put newcodesandnames aload pop
128 1 255 { newfont /Encoding get exch /.notdef put } for
newcodesandnames length 2 idiv { newfont /Encoding get 3 1 roll put } repeat
newfontname newfont definefont pop end } def
/isovec [
8#055 /minus 8#200 /grave 8#201 /acute 8#202 /circumflex 8#203 /tilde
8#204 /macron 8#205 /breve 8#206 /dotaccent 8#207 /dieresis
8#210 /ring 8#211 /cedilla 8#212 /hungarumlaut 8#213 /ogonek 8#214 /caron
8#220 /dotlessi 8#230 /oe 8#231 /OE
8#240 /space 8#241 /exclamdown 8#242 /cent 8#243 /sterling
8#244 /currency 8#245 /yen 8#246 /brokenbar 8#247 /section 8#250 /dieresis
8#251 /copyright 8#252 /ordfeminine 8#253 /guillemotleft 8#254 /logicalnot
8#255 /hypen 8#256 /registered 8#257 /macron 8#260 /degree 8#261 /plusminus
8#262 /twosuperior 8#263 /threesuperior 8#264 /acute 8#265 /mu 8#266 /paragraph
8#267 /periodcentered 8#270 /cedilla 8#271 /onesuperior 8#272 /ordmasculine
8#273 /guillemotright 8#274 /onequarter 8#275 /onehalf
8#276 /threequarters 8#277 /questiondown 8#300 /Agrave 8#301 /Aacute
8#302 /Acircumflex 8#303 /Atilde 8#304 /Adieresis 8#305 /Aring
8#306 /AE 8#307 /Ccedilla 8#310 /Egrave 8#311 /Eacute
8#312 /Ecircumflex 8#313 /Edieresis 8#314 /Igrave 8#315 /Iacute
8#316 /Icircumflex 8#317 /Idieresis 8#320 /Eth 8#321 /Ntilde 8#322 /Ograve
8#323 /Oacute 8#324 /Ocircumflex 8#325 /Otilde 8#326 /Odieresis 8#327 /multiply
8#330 /Oslash 8#331 /Ugrave 8#332 /Uacute 8#333 /Ucircumflex
8#334 /Udieresis 8#335 /Yacute 8#336 /Thorn 8#337 /germandbls 8#340 /agrave
8#341 /aacute 8#342 /acircumflex 8#343 /atilde 8#344 /adieresis 8#345 /aring
8#346 /ae 8#347 /ccedilla 8#350 /egrave 8#351 /eacute
8#352 /ecircumflex 8#353 /edieresis 8#354 /igrave 8#355 /iacute
8#356 /icircumflex 8#357 /idieresis 8#360 /eth 8#361 /ntilde 8#362 /ograve
8#363 /oacute 8#364 /ocircumflex 8#365 /otilde 8#366 /odieresis 8#367 /divide
8#370 /oslash 8#371 /ugrave 8#372 /uacute 8#373 /ucircumflex
8#374 /udieresis 8#375 /yacute 8#376 /thorn 8#377 /ydieresis] def
/Times-Roman /Times-Roman-iso isovec ReEncode
/Times-Bold /Times-Bold-iso isovec ReEncode
/Times-Roman /Times-Roman-iso isovec ReEncode
/$F2psBegin {$F2psDict begin /$F2psEnteredState save def} def
/$F2psEnd {$F2psEnteredState restore end} def

$F2psBegin
%%Page: 1 1
10 setmiterlimit
 0.06000 0.06000 sc
% Polyline
n 180 825 m 75 825 75 3870 105 arcto 4 {pop} repeat
  75 3975 5220 3975 105 arcto 4 {pop} repeat
  5325 3975 5325 930 105 arcto 4 {pop} repeat
  5325 825 180 825 105 arcto 4 {pop} repeat
 cp gs col7 1.00 shd ef gr 
/Times-Roman-iso ff 150.00 scf sf
4200 2175 m
gs 1 -1 sc (Brazil  1984) col0 sh gr
/Times-Roman-iso ff 150.00 scf sf
4200 2400 m
gs 1 -1 sc (Vertigo 1958) col0 sh gr
/Times-Roman-iso ff 150.00 scf sf
4200 2625 m
gs 1 -1 sc (Greystoke 1984) col0 sh gr
/Times-Roman-iso ff 150.00 scf sf
2700 1350 m
gs 1 -1 sc (Annie Hall 1977) col0 sh gr
/Times-Roman-iso ff 150.00 scf sf
2700 1575 m
gs 1 -1 sc (Underground 1995) col0 sh gr
/Times-Roman-iso ff 150.00 scf sf
2700 1800 m
gs 1 -1 sc (Psychose 1960) col0 sh gr
/Times-Roman-iso ff 150.00 scf sf
1050 1200 m
gs 1 -1 sc (Jurassic Park 1992) col0 sh gr
/Times-Roman-iso ff 150.00 scf sf
1050 1425 m
gs 1 -1 sc (Twin Peaks 1990) col0 sh gr
/Times-Roman-iso ff 150.00 scf sf
1050 1650 m
gs 1 -1 sc (Easy Rider 1969) col0 sh gr
/Times-Roman-iso ff 150.00 scf sf
1200 3300 m
gs 1 -1 sc (Impitoyable 1992) col0 sh gr
/Times-Roman-iso ff 150.00 scf sf
1200 3525 m
gs 1 -1 sc (Shining 1980) col0 sh gr
/Times-Roman-iso ff 150.00 scf sf
1200 3750 m
gs 1 -1 sc (Smoke 1995) col0 sh gr
/Times-Roman-iso ff 150.00 scf sf
2550 3150 m
gs 1 -1 sc (Manhattan 1979) col0 sh gr
/Times-Roman-iso ff 150.00 scf sf
2550 3375 m
gs 1 -1 sc (Metropolis 1926) col0 sh gr
/Times-Roman-iso ff 150.00 scf sf
2550 3600 m
gs 1 -1 sc (Casablanca 1942) col0 sh gr
/Times-Roman-iso ff 150.00 scf sf
2550 3825 m
gs 1 -1 sc (Reservoir Dogs 1992) col0 sh gr
/Times-Roman-iso ff 150.00 scf sf
4125 3150 m
gs 1 -1 sc (Citizen Kane 1941) col0 sh gr
% Polyline
7.500 slw
gs  clippath
840 1230 m 840 1170 l 689 1170 l 809 1200 l 689 1230 l cp
eoclip
n 600 1200 m
 825 1200 l gs col0 s gr gr

% arrowhead
n 689 1230 m 809 1200 l 689 1170 l 689 1230 l  cp gs 0.00 setgray ef gr  col0 s
% Polyline
gs  clippath
420 2040 m 480 2040 l 480 1889 l 450 2009 l 420 1889 l cp
eoclip
n 450 1725 m
 450 2025 l gs col0 s gr gr

% arrowhead
n 420 1889 m 450 2009 l 480 1889 l 420 1889 l  cp gs 0.00 setgray ef gr  col0 s
/Times-Roman-iso ff 150.00 scf sf
376 2176 m
gs 1 -1 sc (0) col0 sh gr
/Times-Roman-iso ff 150.00 scf sf
376 2476 m
gs 1 -1 sc (1) col0 sh gr
/Times-Roman-iso ff 150.00 scf sf
376 2776 m
gs 1 -1 sc (2) col0 sh gr
/Times-Roman-iso ff 150.00 scf sf
376 3076 m
gs 1 -1 sc (3) col0 sh gr
/Times-Roman-iso ff 150.00 scf sf
376 3376 m
gs 1 -1 sc (4) col0 sh gr
/Times-Roman-iso ff 150.00 scf sf
150 3675 m
gs 1 -1 sc (R\351pertoire) col0 sh gr
/Times-Bold-iso ff 150.00 scf sf
225 1650 m
gs 1 -1 sc (entr\351es) col0 sh gr
/Times-Bold-iso ff 150.00 scf sf
225 1275 m
gs 1 -1 sc (blocs) col0 sh gr
% Polyline
n 4050 1950 m 5250 1950 l 5250 2775 l 4050 2775 l
 cp gs col-1 s gr 
% Polyline
n 2550 1125 m 3975 1125 l 3975 2025 l 2550 2025 l
 cp gs col-1 s gr 
% Polyline
n 975 975 m 2250 975 l 2250 1875 l 975 1875 l
 cp gs col-1 s gr 
% Polyline
n 1050 3075 m 2325 3075 l 2325 3825 l 1050 3825 l
 cp gs col-1 s gr 
% Polyline
n 2475 2925 m 3825 2925 l 3825 3900 l 2475 3900 l
 cp gs col-1 s gr 
% Polyline
n 4050 2925 m 5250 2925 l 5250 3900 l 4050 3900 l
 cp gs col-1 s gr 
% Polyline
gs  clippath
1065 3330 m 1065 3270 l 914 3270 l 1034 3300 l 914 3330 l cp
eoclip
n 600 3300 m 750 3300 l
 1050 3300 l gs col-1 s gr gr

% arrowhead
n 914 3330 m 1034 3300 l 914 3270 l 914 3330 l  cp gs 0.00 setgray ef gr  col-1 s
% Polyline
gs  clippath
2490 3030 m 2490 2970 l 2339 2970 l 2459 3000 l 2339 3030 l cp
eoclip
n 600 3000 m 1350 3000 l
 2475 3000 l gs col-1 s gr gr

% arrowhead
n 2339 3030 m 2459 3000 l 2339 2970 l 2339 3030 l  cp gs 0.00 setgray ef gr  col-1 s
% Polyline
gs  clippath
4065 2730 m 4065 2670 l 3914 2670 l 4034 2700 l 3914 2730 l cp
eoclip
n 600 2700 m
 4050 2700 l gs col-1 s gr gr

% arrowhead
n 3914 2730 m 4034 2700 l 3914 2670 l 3914 2730 l  cp gs 0.00 setgray ef gr  col-1 s
% Polyline
gs  clippath
3555 2010 m 3495 2010 l 3495 2161 l 3525 2041 l 3555 2161 l cp
eoclip
n 600 2400 m 3525 2400 l
 3525 2025 l gs col-1 s gr gr

% arrowhead
n 3555 2161 m 3525 2041 l 3495 2161 l 3555 2161 l  cp gs 0.00 setgray ef gr  col-1 s
% Polyline
gs  clippath
1605 1860 m 1545 1860 l 1545 2011 l 1575 1891 l 1605 2011 l cp
eoclip
n 600 2100 m 1575 2100 l
 1575 1875 l gs col-1 s gr gr

% arrowhead
n 1605 2011 m 1575 1891 l 1545 2011 l 1605 2011 l  cp gs 0.00 setgray ef gr  col-1 s
% Polyline
n 226 2251 m
 601 2251 l gs col-1 s gr 
% Polyline
n 226 2551 m
 601 2551 l gs col-1 s gr 
% Polyline
n 226 2851 m
 601 2851 l gs col-1 s gr 
% Polyline
n 226 3151 m
 601 3151 l gs col-1 s gr 
% Polyline
n 226 3451 m
 601 3451 l gs col-1 s gr 
% Polyline
n 226 1951 m 601 1951 l 601 3451 l 226 3451 l
 cp gs col-1 s gr 
% Polyline
gs  clippath
4065 3255 m 4065 3195 l 3914 3195 l 4034 3225 l 3914 3255 l cp
eoclip
n 3825 3225 m 3975 3225 l
 4050 3225 l gs col-1 s gr gr

% arrowhead
n 3914 3255 m 4034 3225 l 3914 3195 l 3914 3255 l  cp gs 0.00 setgray ef gr  col-1 s
$F2psEnd
rs
