%!PS-Adobe-2.0 EPSF-2.0
%%Title: hashext-2.eps
%%Creator: fig2dev Version 3.2.3 Patchlevel 
%%CreationDate: Tue Mar 12 22:04:38 2002
%%For: rigaux@cartier (Philippe Rigaux)
%%BoundingBox: 0 0 137 150
%%Magnification: 1.0000
%%EndComments
/$F2psDict 200 dict def
$F2psDict begin
$F2psDict /mtrx matrix put
/col-1 {0 setgray} bind def
/col0 {0.000 0.000 0.000 srgb} bind def
/col1 {0.000 0.000 1.000 srgb} bind def
/col2 {0.000 1.000 0.000 srgb} bind def
/col3 {0.000 1.000 1.000 srgb} bind def
/col4 {1.000 0.000 0.000 srgb} bind def
/col5 {1.000 0.000 1.000 srgb} bind def
/col6 {1.000 1.000 0.000 srgb} bind def
/col7 {1.000 1.000 1.000 srgb} bind def
/col8 {0.000 0.000 0.560 srgb} bind def
/col9 {0.000 0.000 0.690 srgb} bind def
/col10 {0.000 0.000 0.820 srgb} bind def
/col11 {0.530 0.810 1.000 srgb} bind def
/col12 {0.000 0.560 0.000 srgb} bind def
/col13 {0.000 0.690 0.000 srgb} bind def
/col14 {0.000 0.820 0.000 srgb} bind def
/col15 {0.000 0.560 0.560 srgb} bind def
/col16 {0.000 0.690 0.690 srgb} bind def
/col17 {0.000 0.820 0.820 srgb} bind def
/col18 {0.560 0.000 0.000 srgb} bind def
/col19 {0.690 0.000 0.000 srgb} bind def
/col20 {0.820 0.000 0.000 srgb} bind def
/col21 {0.560 0.000 0.560 srgb} bind def
/col22 {0.690 0.000 0.690 srgb} bind def
/col23 {0.820 0.000 0.820 srgb} bind def
/col24 {0.500 0.190 0.000 srgb} bind def
/col25 {0.630 0.250 0.000 srgb} bind def
/col26 {0.750 0.380 0.000 srgb} bind def
/col27 {1.000 0.500 0.500 srgb} bind def
/col28 {1.000 0.630 0.630 srgb} bind def
/col29 {1.000 0.750 0.750 srgb} bind def
/col30 {1.000 0.880 0.880 srgb} bind def
/col31 {1.000 0.840 0.000 srgb} bind def

end
save
newpath 0 150 moveto 0 0 lineto 137 0 lineto 137 150 lineto closepath clip newpath
-17.0 212.0 translate
1 -1 scale

/cp {closepath} bind def
/ef {eofill} bind def
/gr {grestore} bind def
/gs {gsave} bind def
/sa {save} bind def
/rs {restore} bind def
/l {lineto} bind def
/m {moveto} bind def
/rm {rmoveto} bind def
/n {newpath} bind def
/s {stroke} bind def
/sh {show} bind def
/slc {setlinecap} bind def
/slj {setlinejoin} bind def
/slw {setlinewidth} bind def
/srgb {setrgbcolor} bind def
/rot {rotate} bind def
/sc {scale} bind def
/sd {setdash} bind def
/ff {findfont} bind def
/sf {setfont} bind def
/scf {scalefont} bind def
/sw {stringwidth} bind def
/tr {translate} bind def
/tnt {dup dup currentrgbcolor
  4 -2 roll dup 1 exch sub 3 -1 roll mul add
  4 -2 roll dup 1 exch sub 3 -1 roll mul add
  4 -2 roll dup 1 exch sub 3 -1 roll mul add srgb}
  bind def
/shd {dup dup currentrgbcolor 4 -2 roll mul 4 -2 roll mul
  4 -2 roll mul srgb} bind def
/$F2psBegin {$F2psDict begin /$F2psEnteredState save def} def
/$F2psEnd {$F2psEnteredState restore end} def

$F2psBegin
%%Page: 1 1
10 setmiterlimit
 0.06000 0.06000 sc
% Polyline
n 405 1050 m 300 1050 300 3420 105 arcto 4 {pop} repeat
  300 3525 2445 3525 105 arcto 4 {pop} repeat
  2550 3525 2550 1155 105 arcto 4 {pop} repeat
  2550 1050 405 1050 105 arcto 4 {pop} repeat
 cp gs col7 1.00 shd ef gr 
% Polyline
7.500 slw
gs  clippath
1515 1305 m 1515 1245 l 1364 1245 l 1484 1275 l 1364 1305 l cp
eoclip
n 825 1950 m 1200 1950 l 1200 1275 l
 1500 1275 l gs col0 s gr gr

% arrowhead
n 1364 1305 m 1484 1275 l 1364 1245 l 1364 1305 l  cp gs 0.00 setgray ef gr  col0 s
% Polyline
n 375 2025 m
 825 2025 l gs col0 s gr 
% Polyline
n 375 1800 m 825 1800 l 825 2700 l 375 2700 l
 cp gs col0 s gr 
% Polyline
n 375 2475 m
 825 2475 l gs col0 s gr 
% Polyline
n 375 2250 m
 825 2250 l gs col0 s gr 
% Polyline
gs  clippath
1515 3330 m 1515 3270 l 1364 3270 l 1484 3300 l 1364 3330 l cp
eoclip
n 525 2700 m 525 3300 l
 1500 3300 l gs col0 s gr gr

% arrowhead
n 1364 3330 m 1484 3300 l 1364 3270 l 1364 3330 l  cp gs 0.00 setgray ef gr  col0 s
% Polyline
gs  clippath
1515 2955 m 1515 2895 l 1364 2895 l 1484 2925 l 1364 2955 l cp
eoclip
n 825 2400 m 1125 2400 l 1125 2925 l
 1500 2925 l gs col0 s gr gr

% arrowhead
n 1364 2955 m 1484 2925 l 1364 2895 l 1364 2955 l  cp gs 0.00 setgray ef gr  col0 s
% Polyline
gs  clippath
1515 2205 m 1515 2145 l 1364 2145 l 1484 2175 l 1364 2205 l cp
eoclip
n 825 2175 m
 1500 2175 l gs col0 s gr gr

% arrowhead
n 1364 2205 m 1484 2175 l 1364 2145 l 1364 2205 l  cp gs 0.00 setgray ef gr  col0 s
% Polyline
n 1500 1875 m 2400 1875 l 2400 2550 l 1500 2550 l
 cp gs col0 s gr 
% Polyline
n 1500 1125 m 2400 1125 l 2400 1800 l 1500 1800 l
 cp gs col0 s gr 
% Polyline
n 1500 2700 m 2400 2700 l 2400 3375 l 1500 3375 l
 cp gs col0 s gr 
/Times-Roman ff 150.00 scf sf
525 1950 m
gs 1 -1 sc (00) col0 sh gr
/Times-Roman ff 150.00 scf sf
525 2175 m
gs 1 -1 sc (01) col0 sh gr
/Times-Roman ff 150.00 scf sf
525 2400 m
gs 1 -1 sc (10) col0 sh gr
/Times-Roman ff 150.00 scf sf
525 2625 m
gs 1 -1 sc (11) col0 sh gr
/Times-Roman ff 150.00 scf sf
1575 2250 m
gs 1 -1 sc (Underground) col0 sh gr
/Times-Roman ff 150.00 scf sf
1575 2025 m
gs 1 -1 sc (Vertigo) col0 sh gr
/Times-Roman ff 150.00 scf sf
1575 2475 m
gs 1 -1 sc (Psychose) col0 sh gr
/Times-Roman ff 150.00 scf sf
1575 1350 m
gs 1 -1 sc (Easy Rider) col0 sh gr
/Times-Roman ff 150.00 scf sf
1650 2925 m
gs 1 -1 sc (Brazil) col0 sh gr
/Times-Roman ff 150.00 scf sf
1650 3075 m
gs 1 -1 sc (Twin Peaks) col0 sh gr
$F2psEnd
rs
