#FIG 3.2
Landscape
Center
Metric
A4      
100.00
Single
-2
1200 2
2 2 0 1 0 7 50 0 -1 0.000 0 0 -1 0 0 5
	 2250 450 2385 450 2385 1620 2250 1620 2250 450
2 1 0 1 0 7 50 0 -1 0.000 0 0 -1 0 0 2
	 2250 540 2385 540
2 1 0 1 0 7 50 0 -1 0.000 0 0 -1 0 0 2
	 2250 630 2385 630
2 1 0 1 0 7 50 0 -1 0.000 0 0 -1 0 0 2
	 2250 720 2385 720
2 1 0 1 0 7 50 0 -1 0.000 0 0 -1 0 0 2
	 2250 810 2385 810
2 1 0 1 0 7 50 0 -1 0.000 0 0 -1 0 0 2
	 2250 900 2385 900
2 1 0 1 0 7 50 0 -1 0.000 0 0 -1 0 0 2
	 2250 990 2385 990
2 1 0 1 0 7 50 0 -1 0.000 0 0 -1 0 0 2
	 2250 1080 2385 1080
2 1 0 1 0 7 50 0 -1 0.000 0 0 -1 0 0 2
	 2250 1170 2385 1170
2 1 0 1 0 7 50 0 -1 0.000 0 0 -1 0 0 2
	 2250 1260 2385 1260
2 1 0 1 0 7 50 0 -1 0.000 0 0 -1 0 0 2
	 2250 1350 2385 1350
2 1 0 1 0 7 50 0 -1 0.000 0 0 -1 0 0 2
	 2250 1440 2385 1440
2 1 0 1 0 7 50 0 -1 0.000 0 0 -1 0 0 2
	 2250 1530 2385 1530
2 1 0 1 0 7 50 0 -1 0.000 0 0 -1 1 0 2
	1 1 1.00 60.00 120.00
	 2385 1575 3060 1575
2 2 0 1 0 6 100 0 20 0.000 0 0 -1 0 0 5
	 2250 450 2385 450 2385 1440 2250 1440 2250 450
2 4 0 1 0 3 100 0 20 0.000 0 0 7 0 0 5
	 1395 1665 1395 1125 540 1125 540 1665 1395 1665
2 2 0 1 0 3 100 0 20 0.000 0 0 -1 0 0 5
	 2250 1260 2385 1260 2385 1530 2250 1530 2250 1260
2 1 0 1 0 7 50 0 -1 0.000 0 0 -1 1 0 2
	1 1 1.00 60.00 120.00
	 1395 1395 2250 1395
4 0 0 50 0 0 10 0.0000 4 150 525 2070 315 m\351moire\001
4 0 0 50 0 0 10 0.0000 4 105 375 3105 1620 Sortie\001
4 0 0 50 0 0 10 0.0000 4 135 630 765 1350 Fragment \001
4 0 0 50 0 0 12 0.0000 4 135 120 945 1575 B\001
4 0 0 50 0 0 10 0.0000 4 150 690 2475 855 en m\351moire\001
4 0 0 50 0 0 10 0.0000 4 135 750 1440 855 Fragment A\001
