%!PS-Adobe-2.0 EPSF-2.0
%%Title: icpj.fig
%%Creator: fig2dev Version 3.2 Patchlevel 5-alpha5
%%CreationDate: Tue Sep 14 10:48:59 2004
%%For: philippe@pc (Philippe Rigaux)
%%BoundingBox: 0 0 250 110
%Magnification: 1.0000
%%EndComments
/$F2psDict 200 dict def
$F2psDict begin
$F2psDict /mtrx matrix put
/col-1 {0 setgray} bind def
/col0 {0.000 0.000 0.000 srgb} bind def
/col1 {0.000 0.000 1.000 srgb} bind def
/col2 {0.000 1.000 0.000 srgb} bind def
/col3 {0.000 1.000 1.000 srgb} bind def
/col4 {1.000 0.000 0.000 srgb} bind def
/col5 {1.000 0.000 1.000 srgb} bind def
/col6 {1.000 1.000 0.000 srgb} bind def
/col7 {1.000 1.000 1.000 srgb} bind def
/col8 {0.000 0.000 0.560 srgb} bind def
/col9 {0.000 0.000 0.690 srgb} bind def
/col10 {0.000 0.000 0.820 srgb} bind def
/col11 {0.530 0.810 1.000 srgb} bind def
/col12 {0.000 0.560 0.000 srgb} bind def
/col13 {0.000 0.690 0.000 srgb} bind def
/col14 {0.000 0.820 0.000 srgb} bind def
/col15 {0.000 0.560 0.560 srgb} bind def
/col16 {0.000 0.690 0.690 srgb} bind def
/col17 {0.000 0.820 0.820 srgb} bind def
/col18 {0.560 0.000 0.000 srgb} bind def
/col19 {0.690 0.000 0.000 srgb} bind def
/col20 {0.820 0.000 0.000 srgb} bind def
/col21 {0.560 0.000 0.560 srgb} bind def
/col22 {0.690 0.000 0.690 srgb} bind def
/col23 {0.820 0.000 0.820 srgb} bind def
/col24 {0.500 0.190 0.000 srgb} bind def
/col25 {0.630 0.250 0.000 srgb} bind def
/col26 {0.750 0.380 0.000 srgb} bind def
/col27 {1.000 0.500 0.500 srgb} bind def
/col28 {1.000 0.630 0.630 srgb} bind def
/col29 {1.000 0.750 0.750 srgb} bind def
/col30 {1.000 0.880 0.880 srgb} bind def
/col31 {1.000 0.840 0.000 srgb} bind def

end
save
newpath 0 110 moveto 0 0 lineto 250 0 lineto 250 110 lineto closepath clip newpath
-27.6 159.7 translate
1 -1 scale

/cp {closepath} bind def
/ef {eofill} bind def
/gr {grestore} bind def
/gs {gsave} bind def
/sa {save} bind def
/rs {restore} bind def
/l {lineto} bind def
/m {moveto} bind def
/rm {rmoveto} bind def
/n {newpath} bind def
/s {stroke} bind def
/sh {show} bind def
/slc {setlinecap} bind def
/slj {setlinejoin} bind def
/slw {setlinewidth} bind def
/srgb {setrgbcolor} bind def
/rot {rotate} bind def
/sc {scale} bind def
/sd {setdash} bind def
/ff {findfont} bind def
/sf {setfont} bind def
/scf {scalefont} bind def
/sw {stringwidth} bind def
/tr {translate} bind def
/tnt {dup dup currentrgbcolor
  4 -2 roll dup 1 exch sub 3 -1 roll mul add
  4 -2 roll dup 1 exch sub 3 -1 roll mul add
  4 -2 roll dup 1 exch sub 3 -1 roll mul add srgb}
  bind def
/shd {dup dup currentrgbcolor 4 -2 roll mul 4 -2 roll mul
  4 -2 roll mul srgb} bind def
/$F2psBegin {$F2psDict begin /$F2psEnteredState save def} def
/$F2psEnd {$F2psEnteredState restore end} def

$F2psBegin
10 setmiterlimit
0 slj 0 slc
 0.06299 0.06299 sc
%
% Fig objects follow
%
% 
% here starts figure with depth 100
/Times-Roman ff 158.75 scf sf
495 1845 m
gs 1 -1 sc (2 ) col0 sh gr
/Times-Roman ff 158.75 scf sf
720 1845 m
gs 1 -1 sc (3) col0 sh gr
/Times-Roman ff 158.75 scf sf
900 1845 m
gs 1 -1 sc (5) col0 sh gr
/Times-Roman ff 158.75 scf sf
1170 1845 m
gs 1 -1 sc (7) col0 sh gr
/Times-Roman ff 158.75 scf sf
1305 1845 m
gs 1 -1 sc (11) col0 sh gr
/Times-Roman ff 158.75 scf sf
1665 1845 m
gs 1 -1 sc (13) col0 sh gr
/Times-Roman ff 158.75 scf sf
1890 1845 m
gs 1 -1 sc (17) col0 sh gr
/Times-Roman ff 158.75 scf sf
2115 1845 m
gs 1 -1 sc (19) col0 sh gr
/Times-Roman ff 158.75 scf sf
2385 1845 m
gs 1 -1 sc (23) col0 sh gr
/Times-Roman ff 158.75 scf sf
2610 1845 m
gs 1 -1 sc (29) col0 sh gr
/Times-Roman ff 158.75 scf sf
2880 1845 m
gs 1 -1 sc (31) col0 sh gr
/Times-Roman ff 158.75 scf sf
3105 1845 m
gs 1 -1 sc (37) col0 sh gr
/Times-Roman ff 158.75 scf sf
3330 1845 m
gs 1 -1 sc (41) col0 sh gr
/Times-Roman ff 158.75 scf sf
3645 1845 m
gs 1 -1 sc (43) col0 sh gr
/Times-Roman ff 158.75 scf sf
3870 1845 m
gs 1 -1 sc (47) col0 sh gr
% Polyline
0 slj
0 slc
7.500 slw
n 450 1665 m 1035 1665 l 1035 1935 l 450 1935 l
 cp gs col0 s gr 
% Polyline
n 1125 1665 m 1530 1665 l 1530 1935 l 1125 1935 l
 cp gs col0 s gr 
% Polyline
n 1620 1665 m 2295 1665 l 2295 1935 l 1620 1935 l
 cp gs col0 s gr 
% Polyline
n 2340 1665 m 2790 1665 l 2790 1935 l 2340 1935 l
 cp gs col0 s gr 
% Polyline
n 2835 1665 m 3510 1665 l 3510 1935 l 2835 1935 l
 cp gs col0 s gr 
% Polyline
n 3600 1665 m 4095 1665 l 4095 1935 l 3600 1935 l
 cp gs col0 s gr 
% Polyline
n 990 1305 m 1440 1305 l 1440 1485 l 990 1485 l
 cp gs col0 s gr 
% Polyline
n 2700 1260 m 3330 1260 l 3330 1485 l 2700 1485 l
 cp gs col0 s gr 
% Polyline
n 1800 945 m 2385 945 l 2385 1125 l 1800 1125 l
 cp gs col0 s gr 
% Polyline
n 450 2115 m 4095 2115 l 4095 2295 l 450 2295 l
 cp gs col0 s gr 
% Polyline
n 4050 810 m 4185 810 l 4185 2025 l
 4095 2025 l gs col0 s gr 
% Polyline
gs  clippath
1770 2053 m 1770 2220 l 1830 2220 l 1830 2053 l 1830 2053 l 1800 2173 l 1770 2053 l cp
eoclip
n 765 1935 m 765 2025 l 1800 2025 l
 1800 2205 l gs col0 s gr gr

% arrowhead
n 1770 2053 m 1800 2173 l 1830 2053 l 1770 2053 l  cp gs 0.00 setgray ef gr  col0 s
% Polyline
gs  clippath
2940 2053 m 2940 2220 l 3000 2220 l 3000 2053 l 3000 2053 l 2970 2173 l 2940 2053 l cp
eoclip
n 2430 1890 m 2430 2025 l 2970 2025 l
 2970 2205 l gs col0 s gr gr

% arrowhead
n 2940 2053 m 2970 2173 l 3000 2053 l 2940 2053 l  cp gs 0.00 setgray ef gr  col0 s
% Polyline
gs  clippath
1320 2008 m 1320 2175 l 1380 2175 l 1380 2008 l 1380 2008 l 1350 2128 l 1320 2008 l cp
eoclip
n 2970 1890 m 2970 1980 l 1350 1980 l
 1350 2160 l gs col0 s gr gr

% arrowhead
n 1320 2008 m 1350 2128 l 1380 2008 l 1320 2008 l  cp gs 0.00 setgray ef gr  col0 s
% Polyline
gs  clippath
941 1535 m 823 1654 l 865 1696 l 984 1578 l 984 1578 l 878 1642 l 941 1535 l cp
eoclip
n 1035 1485 m
 855 1665 l gs col0 s gr gr

% arrowhead
n 941 1535 m 878 1642 l 984 1578 l 941 1535 l  cp gs 0.00 setgray ef gr  col0 s
% Polyline
gs  clippath
1230 1513 m 1230 1680 l 1290 1680 l 1290 1513 l 1290 1513 l 1260 1633 l 1230 1513 l cp
eoclip
n 1260 1485 m
 1260 1665 l gs col0 s gr gr

% arrowhead
n 1230 1513 m 1260 1633 l 1290 1513 l 1230 1513 l  cp gs 0.00 setgray ef gr  col0 s
% Polyline
gs  clippath
1607 1615 m 1753 1698 l 1782 1646 l 1637 1563 l 1637 1563 l 1727 1649 l 1607 1615 l cp
eoclip
n 1440 1485 m
 1755 1665 l gs col0 s gr gr

% arrowhead
n 1607 1615 m 1727 1649 l 1637 1563 l 1607 1615 l  cp gs 0.00 setgray ef gr  col0 s
% Polyline
gs  clippath
1562 1210 m 1413 1284 l 1440 1338 l 1589 1264 l 1589 1264 l 1469 1291 l 1562 1210 l cp
eoclip
n 1800 1125 m
 1440 1305 l gs col0 s gr gr

% arrowhead
n 1562 1210 m 1469 1291 l 1589 1264 l 1562 1210 l  cp gs 0.00 setgray ef gr  col0 s
% Polyline
gs  clippath
2547 1227 m 2701 1293 l 2725 1238 l 2571 1172 l 2571 1172 l 2670 1247 l 2547 1227 l cp
eoclip
n 2385 1125 m
 2700 1260 l gs col0 s gr gr

% arrowhead
n 2547 1227 m 2670 1247 l 2571 1172 l 2547 1227 l  cp gs 0.00 setgray ef gr  col0 s
% Polyline
gs  clippath
2632 1525 m 2532 1659 l 2580 1695 l 2680 1561 l 2680 1561 l 2584 1639 l 2632 1525 l cp
eoclip
n 2700 1485 m
 2565 1665 l gs col0 s gr gr

% arrowhead
n 2632 1525 m 2584 1639 l 2680 1561 l 2632 1525 l  cp gs 0.00 setgray ef gr  col0 s
% Polyline
gs  clippath
2985 1513 m 2985 1680 l 3045 1680 l 3045 1513 l 3045 1513 l 3015 1633 l 2985 1513 l cp
eoclip
n 3015 1485 m
 3015 1665 l gs col0 s gr gr

% arrowhead
n 2985 1513 m 3015 1633 l 3045 1513 l 2985 1513 l  cp gs 0.00 setgray ef gr  col0 s
% Polyline
gs  clippath
3583 1630 m 3736 1698 l 3760 1643 l 3607 1575 l 3607 1575 l 3705 1652 l 3583 1630 l cp
eoclip
n 3330 1485 m
 3735 1665 l gs col0 s gr gr

% arrowhead
n 3583 1630 m 3705 1652 l 3607 1575 l 3583 1630 l  cp gs 0.00 setgray ef gr  col0 s
% Polyline
n 1035 1845 m
 1125 1845 l gs col0 s gr 
% Polyline
n 1530 1845 m
 1620 1845 l gs col0 s gr 
% Polyline
n 2295 1845 m
 2340 1845 l gs col0 s gr 
% Polyline
n 2790 1845 m
 2835 1845 l gs col0 s gr 
% Polyline
n 2876 1845 m 2884 1845 l gs col0 s gr
% Polyline
n 3510 1845 m
 3600 1845 l gs col0 s gr 
% Polyline
gs  clippath
2310 2053 m 2310 2220 l 2370 2220 l 2370 2053 l 2370 2053 l 2340 2173 l 2310 2053 l cp
eoclip
n 2655 1935 m 2655 2070 l 2340 2070 l
 2340 2205 l gs col0 s gr gr

% arrowhead
n 2310 2053 m 2340 2173 l 2370 2053 l 2310 2053 l  cp gs 0.00 setgray ef gr  col0 s
% Polyline
n 810 2115 m
 810 2295 l gs col0 s gr 
% Polyline
n 1710 2115 m
 1710 2295 l gs col0 s gr 
% Polyline
n 2115 2115 m
 2115 2295 l gs col0 s gr 
% Polyline
n 2610 2115 m
 2610 2295 l gs col0 s gr 
% Polyline
n 3195 2115 m
 3195 2295 l gs col0 s gr 
% Polyline
n 3600 2115 m
 3600 2295 l gs col0 s gr 
% Polyline
n 1215 2115 m
 1215 2295 l gs col0 s gr 
/Times-Roman ff 158.75 scf sf
1260 1440 m
gs 1 -1 sc (11) col0 sh gr
/Times-Roman ff 158.75 scf sf
1035 1440 m
gs 1 -1 sc (5) col0 sh gr
/Times-Roman ff 158.75 scf sf
2160 1080 m
gs 1 -1 sc (19) col0 sh gr
/Times-Roman ff 158.75 scf sf
2790 1440 m
gs 1 -1 sc (29) col0 sh gr
/Times-Roman ff 158.75 scf sf
3105 1440 m
gs 1 -1 sc (41) col0 sh gr
/Times-Roman ff 158.75 scf sf
4275 1080 m
gs 1 -1 sc  270.0 rot (Arbre B+) col0 sh gr
/Times-Roman ff 158.75 scf sf
1800 2520 m
gs 1 -1 sc (Fichier) col0 sh gr
/Times-Roman ff 158.75 scf sf
1890 2250 m
gs 1 -1 sc (3) col0 sh gr
/Times-Roman ff 158.75 scf sf
1395 2250 m
gs 1 -1 sc (31) col0 sh gr
/Times-Roman ff 158.75 scf sf
3015 2250 m
gs 1 -1 sc (23) col0 sh gr
/Times-Roman ff 158.75 scf sf
2340 2250 m
gs 1 -1 sc (29) col0 sh gr
/Times-Roman ff 158.75 scf sf
945 2250 m
gs 1 -1 sc (19) col0 sh gr
/Times-Roman ff 158.75 scf sf
3735 2250 m
gs 1 -1 sc (17) col0 sh gr
% here ends figure;
$F2psEnd
rs
showpage
%%Trailer
%EOF
