%!PS-Adobe-2.0 EPSF-2.0
%%Title: indexFilm2.eps
%%Creator: fig2dev Version 3.2 Patchlevel 1
%%CreationDate: Tue Jun 19 10:21:58 2001
%%For: rigaux@cartier ()
%%Orientation: Portrait
%%BoundingBox: 0 0 402 200
%%Pages: 0
%%BeginSetup
%%EndSetup
%%Magnification: 1.0000
%%EndComments
/$F2psDict 200 dict def
$F2psDict begin
$F2psDict /mtrx matrix put
/col-1 {0 setgray} bind def
/col0 {0.000 0.000 0.000 srgb} bind def
/col1 {0.000 0.000 1.000 srgb} bind def
/col2 {0.000 1.000 0.000 srgb} bind def
/col3 {0.000 1.000 1.000 srgb} bind def
/col4 {1.000 0.000 0.000 srgb} bind def
/col5 {1.000 0.000 1.000 srgb} bind def
/col6 {1.000 1.000 0.000 srgb} bind def
/col7 {1.000 1.000 1.000 srgb} bind def
/col8 {0.000 0.000 0.560 srgb} bind def
/col9 {0.000 0.000 0.690 srgb} bind def
/col10 {0.000 0.000 0.820 srgb} bind def
/col11 {0.530 0.810 1.000 srgb} bind def
/col12 {0.000 0.560 0.000 srgb} bind def
/col13 {0.000 0.690 0.000 srgb} bind def
/col14 {0.000 0.820 0.000 srgb} bind def
/col15 {0.000 0.560 0.560 srgb} bind def
/col16 {0.000 0.690 0.690 srgb} bind def
/col17 {0.000 0.820 0.820 srgb} bind def
/col18 {0.560 0.000 0.000 srgb} bind def
/col19 {0.690 0.000 0.000 srgb} bind def
/col20 {0.820 0.000 0.000 srgb} bind def
/col21 {0.560 0.000 0.560 srgb} bind def
/col22 {0.690 0.000 0.690 srgb} bind def
/col23 {0.820 0.000 0.820 srgb} bind def
/col24 {0.500 0.190 0.000 srgb} bind def
/col25 {0.630 0.250 0.000 srgb} bind def
/col26 {0.750 0.380 0.000 srgb} bind def
/col27 {1.000 0.500 0.500 srgb} bind def
/col28 {1.000 0.630 0.630 srgb} bind def
/col29 {1.000 0.750 0.750 srgb} bind def
/col30 {1.000 0.880 0.880 srgb} bind def
/col31 {1.000 0.840 0.000 srgb} bind def

end
save
-4.0 199.0 translate
1 -1 scale

/cp {closepath} bind def
/ef {eofill} bind def
/gr {grestore} bind def
/gs {gsave} bind def
/sa {save} bind def
/rs {restore} bind def
/l {lineto} bind def
/m {moveto} bind def
/rm {rmoveto} bind def
/n {newpath} bind def
/s {stroke} bind def
/sh {show} bind def
/slc {setlinecap} bind def
/slj {setlinejoin} bind def
/slw {setlinewidth} bind def
/srgb {setrgbcolor} bind def
/rot {rotate} bind def
/sc {scale} bind def
/sd {setdash} bind def
/ff {findfont} bind def
/sf {setfont} bind def
/scf {scalefont} bind def
/sw {stringwidth} bind def
/tr {translate} bind def
/tnt {dup dup currentrgbcolor
  4 -2 roll dup 1 exch sub 3 -1 roll mul add
  4 -2 roll dup 1 exch sub 3 -1 roll mul add
  4 -2 roll dup 1 exch sub 3 -1 roll mul add srgb}
  bind def
/shd {dup dup currentrgbcolor 4 -2 roll mul 4 -2 roll mul
  4 -2 roll mul srgb} bind def
/reencdict 12 dict def /ReEncode { reencdict begin
/newcodesandnames exch def /newfontname exch def /basefontname exch def
/basefontdict basefontname findfont def /newfont basefontdict maxlength dict def
basefontdict { exch dup /FID ne { dup /Encoding eq
{ exch dup length array copy newfont 3 1 roll put }
{ exch newfont 3 1 roll put } ifelse } { pop pop } ifelse } forall
newfont /FontName newfontname put newcodesandnames aload pop
128 1 255 { newfont /Encoding get exch /.notdef put } for
newcodesandnames length 2 idiv { newfont /Encoding get 3 1 roll put } repeat
newfontname newfont definefont pop end } def
/isovec [
8#200 /grave 8#201 /acute 8#202 /circumflex 8#203 /tilde
8#204 /macron 8#205 /breve 8#206 /dotaccent 8#207 /dieresis
8#210 /ring 8#211 /cedilla 8#212 /hungarumlaut 8#213 /ogonek 8#214 /caron
8#220 /dotlessi 8#230 /oe 8#231 /OE
8#240 /space 8#241 /exclamdown 8#242 /cent 8#243 /sterling
8#244 /currency 8#245 /yen 8#246 /brokenbar 8#247 /section 8#250 /dieresis
8#251 /copyright 8#252 /ordfeminine 8#253 /guillemotleft 8#254 /logicalnot
8#255 /endash 8#256 /registered 8#257 /macron 8#260 /degree 8#261 /plusminus
8#262 /twosuperior 8#263 /threesuperior 8#264 /acute 8#265 /mu 8#266 /paragraph
8#267 /periodcentered 8#270 /cedilla 8#271 /onesuperior 8#272 /ordmasculine
8#273 /guillemotright 8#274 /onequarter 8#275 /onehalf
8#276 /threequarters 8#277 /questiondown 8#300 /Agrave 8#301 /Aacute
8#302 /Acircumflex 8#303 /Atilde 8#304 /Adieresis 8#305 /Aring
8#306 /AE 8#307 /Ccedilla 8#310 /Egrave 8#311 /Eacute
8#312 /Ecircumflex 8#313 /Edieresis 8#314 /Igrave 8#315 /Iacute
8#316 /Icircumflex 8#317 /Idieresis 8#320 /Eth 8#321 /Ntilde 8#322 /Ograve
8#323 /Oacute 8#324 /Ocircumflex 8#325 /Otilde 8#326 /Odieresis 8#327 /multiply
8#330 /Oslash 8#331 /Ugrave 8#332 /Uacute 8#333 /Ucircumflex
8#334 /Udieresis 8#335 /Yacute 8#336 /Thorn 8#337 /germandbls 8#340 /agrave
8#341 /aacute 8#342 /acircumflex 8#343 /atilde 8#344 /adieresis 8#345 /aring
8#346 /ae 8#347 /ccedilla 8#350 /egrave 8#351 /eacute
8#352 /ecircumflex 8#353 /edieresis 8#354 /igrave 8#355 /iacute
8#356 /icircumflex 8#357 /idieresis 8#360 /eth 8#361 /ntilde 8#362 /ograve
8#363 /oacute 8#364 /ocircumflex 8#365 /otilde 8#366 /odieresis 8#367 /divide
8#370 /oslash 8#371 /ugrave 8#372 /uacute 8#373 /ucircumflex
8#374 /udieresis 8#375 /yacute 8#376 /thorn 8#377 /ydieresis] def
/Times-Roman /Times-Roman-iso isovec ReEncode
/Times-BoldItalic /Times-BoldItalic-iso isovec ReEncode
/$F2psBegin {$F2psDict begin /$F2psEnteredState save def} def
/$F2psEnd {$F2psEnteredState restore end} def
%%EndProlog

$F2psBegin
10 setmiterlimit
n -1000 4301 m -1000 -1000 l 7751 -1000 l 7751 4301 l cp clip
 0.06000 0.06000 sc
% Polyline
n 180 0 m 75 0 75 3195 105 arcto 4 {pop} repeat
  75 3300 6645 3300 105 arcto 4 {pop} repeat
  6750 3300 6750 105 105 arcto 4 {pop} repeat
  6750 0 180 0 105 arcto 4 {pop} repeat
 cp gs col7 1.00 shd ef gr 
% Polyline
7.500 slw
n 450 1875 m 375 1875 l 375 3225 l 450 3225 l gs col0 s gr 
/Times-Roman-iso ff 150.00 scf sf
225 2925 m
gs 1 -1 sc  90.0 rot (Donn\351es) col0 sh gr
% Polyline
n 600 675 m 1575 675 l 1575 1425 l 600 1425 l cp gs col0 s gr 
% Polyline
n 1950 675 m 2925 675 l 2925 1425 l 1950 1425 l cp gs col0 s gr 
% Polyline
n 3225 675 m 4200 675 l 4200 1425 l 3225 1425 l cp gs col0 s gr 
% Polyline
n 4650 675 m 5625 675 l 5625 1425 l 4650 1425 l cp gs col0 s gr 
% Polyline
n 450 1725 m 375 1725 l 375 75 l 450 75 l gs col0 s gr 
% Polyline
gs  clippath
1155 555 m 1125 675 l 1095 555 l 1095 690 l 1155 690 l cp
clip
n 2250 225 m 2250 450 l 1125 450 l 1125 675 l gs col0 s gr gr

% arrowhead
n 1155 555 m 1125 675 l 1095 555 l 1125 555 l 1155 555 l  cp gs 0.00 setgray ef gr  col0 s
% Polyline
gs  clippath
2505 555 m 2475 675 l 2445 555 l 2445 690 l 2505 690 l cp
clip
n 3000 225 m 3000 525 l 2475 525 l 2475 675 l gs col0 s gr gr

% arrowhead
n 2505 555 m 2475 675 l 2445 555 l 2475 555 l 2505 555 l  cp gs 0.00 setgray ef gr  col0 s
% Polyline
gs  clippath
3780 555 m 3750 675 l 3720 555 l 3720 690 l 3780 690 l cp
clip
n 3750 225 m 3750 675 l gs col0 s gr gr

% arrowhead
n 3780 555 m 3750 675 l 3720 555 l 3750 555 l 3780 555 l  cp gs 0.00 setgray ef gr  col0 s
% Polyline
gs  clippath
5130 555 m 5100 675 l 5070 555 l 5070 690 l 5130 690 l cp
clip
n 4275 225 m 4275 450 l 5100 450 l 5100 675 l gs col0 s gr gr

% arrowhead
n 5130 555 m 5100 675 l 5070 555 l 5100 555 l 5130 555 l  cp gs 0.00 setgray ef gr  col0 s
% Polyline
n 5246 2250 m 5254 2250 l gs col0 s gr
% Polyline
n 2175 75 m 4350 75 l 4350 375 l 2175 375 l cp gs col0 s gr 
% Polyline
gs  clippath
930 1830 m 900 1950 l 870 1830 l 870 1965 l 930 1965 l cp
clip
n 1200 1275 m 1650 1275 l 1650 1500 l 900 1500 l 900 1950 l gs col0 s gr gr

% arrowhead
n 930 1830 m 900 1950 l 870 1830 l 900 1830 l 930 1830 l  cp gs 0.00 setgray ef gr  col0 s
% Polyline
gs  clippath
4680 1830 m 4650 1950 l 4620 1830 l 4620 1965 l 4680 1965 l cp
clip
n 2625 1200 m 3075 1200 l 3075 1725 l 4650 1725 l 4650 1950 l gs col0 s gr gr

% arrowhead
n 4680 1830 m 4650 1950 l 4620 1830 l 4650 1830 l 4680 1830 l  cp gs 0.00 setgray ef gr  col0 s
% Polyline
gs  clippath
4455 1830 m 4425 1950 l 4395 1830 l 4395 1965 l 4455 1965 l cp
clip
n 4800 1275 m 4425 1275 l 4425 1950 l gs col0 s gr gr

% arrowhead
n 4455 1830 m 4425 1950 l 4395 1830 l 4425 1830 l 4455 1830 l  cp gs 0.00 setgray ef gr  col0 s
% Polyline
gs  clippath
6645 3105 m 6525 3075 l 6645 3045 l 6510 3045 l 6510 3105 l cp
clip
n 5175 1275 m 6675 1275 l 6675 3075 l 6525 3075 l gs col0 s gr gr

% arrowhead
n 6645 3105 m 6525 3075 l 6645 3045 l 6645 3075 l 6645 3105 l  cp gs 0.00 setgray ef gr  col0 s
% Polyline
 [15 15] 15 sd
gs  clippath
1830 795 m 1950 825 l 1830 855 l 1965 855 l 1965 795 l cp
clip
n 1575 825 m 1950 825 l gs col0 s gr gr
 [] 0 sd
% arrowhead
n 1830 795 m 1950 825 l 1830 855 l 1830 825 l 1830 795 l  cp gs 0.00 setgray ef gr  col0 s
% Polyline
 [15 15] 15 sd
gs  clippath
3105 795 m 3225 825 l 3105 855 l 3240 855 l 3240 795 l cp
clip
n 2925 825 m 3225 825 l gs col0 s gr gr
 [] 0 sd
% arrowhead
n 3105 795 m 3225 825 l 3105 855 l 3105 825 l 3105 795 l  cp gs 0.00 setgray ef gr  col0 s
% Polyline
 [15 15] 15 sd
gs  clippath
4530 795 m 4650 825 l 4530 855 l 4665 855 l 4665 795 l cp
clip
n 4200 825 m 4650 825 l gs col0 s gr gr
 [] 0 sd
% arrowhead
n 4530 795 m 4650 825 l 4530 855 l 4530 825 l 4530 795 l  cp gs 0.00 setgray ef gr  col0 s
/Times-Roman-iso ff 150.00 scf sf
225 1050 m
gs 1 -1 sc  90.0 rot (Index) col0 sh gr
/Times-Roman-iso ff 150.00 scf sf
3225 225 m
gs 1 -1 sc (1969) col0 sh gr
/Times-Roman-iso ff 150.00 scf sf
3825 225 m
gs 1 -1 sc (1984) col0 sh gr
/Times-Roman-iso ff 150.00 scf sf
2400 225 m
gs 1 -1 sc (1958) col0 sh gr
/Times-Roman-iso ff 150.00 scf sf
825 900 m
gs 1 -1 sc (1926) col0 sh gr
/Times-Roman-iso ff 150.00 scf sf
825 1125 m
gs 1 -1 sc (1942) col0 sh gr
/Times-Roman-iso ff 150.00 scf sf
825 1350 m
gs 1 -1 sc (1958) col0 sh gr
/Times-Roman-iso ff 150.00 scf sf
2175 1275 m
gs 1 -1 sc (1969) col0 sh gr
/Times-Roman-iso ff 150.00 scf sf
2175 975 m
gs 1 -1 sc (1960) col0 sh gr
/Times-Roman-iso ff 150.00 scf sf
3375 900 m
gs 1 -1 sc (1977) col0 sh gr
/Times-Roman-iso ff 150.00 scf sf
3375 1050 m
gs 1 -1 sc (1979) col0 sh gr
/Times-Roman-iso ff 150.00 scf sf
3375 1200 m
gs 1 -1 sc (1980) col0 sh gr
/Times-Roman-iso ff 150.00 scf sf
3375 1350 m
gs 1 -1 sc (1984) col0 sh gr
/Times-Roman-iso ff 150.00 scf sf
4800 900 m
gs 1 -1 sc (1990) col0 sh gr
/Times-Roman-iso ff 150.00 scf sf
4800 1125 m
gs 1 -1 sc (1992) col0 sh gr
/Times-Roman-iso ff 150.00 scf sf
4800 1350 m
gs 1 -1 sc (1995) col0 sh gr
/Times-BoldItalic-iso ff 150.00 scf sf
525 2175 m
gs 1 -1 sc (Vertigo 1958) col0 sh gr
/Times-BoldItalic-iso ff 150.00 scf sf
1425 2175 m
gs 1 -1 sc (Brazil  1984) col0 sh gr
/Times-BoldItalic-iso ff 150.00 scf sf
2250 2175 m
gs 1 -1 sc (Twin Peaks 1990) col0 sh gr
/Times-BoldItalic-iso ff 150.00 scf sf
3375 2175 m
gs 1 -1 sc (Underground 1995) col0 sh gr
/Times-BoldItalic-iso ff 150.00 scf sf
4575 2175 m
gs 1 -1 sc (Easy Rider 1969) col0 sh gr
/Times-BoldItalic-iso ff 150.00 scf sf
5625 2175 m
gs 1 -1 sc (Psychose 1960) col0 sh gr
/Times-BoldItalic-iso ff 150.00 scf sf
3450 3075 m
gs 1 -1 sc (Impitoyable 1992) col0 sh gr
/Times-BoldItalic-iso ff 150.00 scf sf
4650 3075 m
gs 1 -1 sc (Casablanca 1942) col0 sh gr
/Times-BoldItalic-iso ff 150.00 scf sf
5775 3075 m
gs 1 -1 sc (Smoke 1995) col0 sh gr
/Times-BoldItalic-iso ff 150.00 scf sf
2100 3075 m
gs 1 -1 sc (Reservoir Dogs 1992) col0 sh gr
/Times-BoldItalic-iso ff 150.00 scf sf
975 3075 m
gs 1 -1 sc (Manhattan 1979) col0 sh gr
% Polyline
n 450 1950 m 6525 1950 l 6525 2250 l 450 2250 l cp gs col0 s gr 
% Polyline
n 1350 1950 m 1350 2250 l gs col0 s gr 
% Polyline
n 2175 1950 m 2175 2250 l gs col0 s gr 
% Polyline
n 3300 1950 m 3300 2250 l gs col0 s gr 
% Polyline
n 4500 1950 m 4500 2250 l gs col0 s gr 
% Polyline
n 5550 1950 m 5550 2250 l gs col0 s gr 
% Polyline
n 900 2400 m 6525 2400 l 6525 2700 l 900 2700 l cp gs col0 s gr 
% Polyline
n 1950 2400 m 1950 2700 l gs col0 s gr 
% Polyline
n 2925 2400 m 2925 2700 l gs col0 s gr 
% Polyline
n 4125 2400 m 4125 2700 l gs col0 s gr 
% Polyline
n 5400 2400 m 5400 2700 l gs col0 s gr 
% Polyline
n 900 2850 m 6525 2850 l 6525 3150 l 900 3150 l cp gs col0 s gr 
% Polyline
n 2025 2850 m 2025 3150 l gs col0 s gr 
% Polyline
n 3375 2850 m 3375 3150 l gs col0 s gr 
% Polyline
n 4575 2850 m 4575 3150 l gs col0 s gr 
% Polyline
n 5700 2850 m 5700 3150 l gs col0 s gr 
% Polyline
gs  clippath
780 2520 m 900 2550 l 780 2580 l 915 2580 l 915 2520 l cp
clip
n 6525 2100 m 6600 2100 l 6600 2325 l 675 2325 l 675 2550 l 900 2550 l gs col0 s gr gr

% arrowhead
n 780 2520 m 900 2550 l 780 2580 l 780 2550 l 780 2520 l  cp gs 0.00 setgray ef gr  col0 s
% Polyline
gs  clippath
780 2970 m 900 3000 l 780 3030 l 915 3030 l 915 2970 l cp
clip
n 6525 2550 m 6600 2550 l 6600 2775 l 675 2775 l 675 3000 l 900 3000 l gs col0 s gr gr

% arrowhead
n 780 2970 m 900 3000 l 780 3030 l 780 3000 l 780 2970 l  cp gs 0.00 setgray ef gr  col0 s
/Times-BoldItalic-iso ff 150.00 scf sf
975 2625 m
gs 1 -1 sc (Greystoke 1984) col0 sh gr
/Times-BoldItalic-iso ff 150.00 scf sf
2100 2625 m
gs 1 -1 sc (Shining 1980) col0 sh gr
/Times-BoldItalic-iso ff 150.00 scf sf
3075 2625 m
gs 1 -1 sc (Annie Hall 1977) col0 sh gr
/Times-BoldItalic-iso ff 150.00 scf sf
4200 2625 m
gs 1 -1 sc (Jurassic Park 1992) col0 sh gr
/Times-BoldItalic-iso ff 150.00 scf sf
5475 2625 m
gs 1 -1 sc (Metropolis 1926) col0 sh gr
$F2psEnd
rs
