%!PS-Adobe-2.0 EPSF-2.0
%%Title: media.eps
%%Creator: fig2dev Version 3.2.3 Patchlevel 
%%CreationDate: Tue Jan  2 17:26:41 2001
%%For: rigaux@cartier (Philippe Rigaux)
%%BoundingBox: 0 0 214 138
%%Magnification: 1.0000
%%EndComments
/$F2psDict 200 dict def
$F2psDict begin
$F2psDict /mtrx matrix put
/col-1 {0 setgray} bind def
/col0 {0.000 0.000 0.000 srgb} bind def
/col1 {0.000 0.000 1.000 srgb} bind def
/col2 {0.000 1.000 0.000 srgb} bind def
/col3 {0.000 1.000 1.000 srgb} bind def
/col4 {1.000 0.000 0.000 srgb} bind def
/col5 {1.000 0.000 1.000 srgb} bind def
/col6 {1.000 1.000 0.000 srgb} bind def
/col7 {1.000 1.000 1.000 srgb} bind def
/col8 {0.000 0.000 0.560 srgb} bind def
/col9 {0.000 0.000 0.690 srgb} bind def
/col10 {0.000 0.000 0.820 srgb} bind def
/col11 {0.530 0.810 1.000 srgb} bind def
/col12 {0.000 0.560 0.000 srgb} bind def
/col13 {0.000 0.690 0.000 srgb} bind def
/col14 {0.000 0.820 0.000 srgb} bind def
/col15 {0.000 0.560 0.560 srgb} bind def
/col16 {0.000 0.690 0.690 srgb} bind def
/col17 {0.000 0.820 0.820 srgb} bind def
/col18 {0.560 0.000 0.000 srgb} bind def
/col19 {0.690 0.000 0.000 srgb} bind def
/col20 {0.820 0.000 0.000 srgb} bind def
/col21 {0.560 0.000 0.560 srgb} bind def
/col22 {0.690 0.000 0.690 srgb} bind def
/col23 {0.820 0.000 0.820 srgb} bind def
/col24 {0.500 0.190 0.000 srgb} bind def
/col25 {0.630 0.250 0.000 srgb} bind def
/col26 {0.750 0.380 0.000 srgb} bind def
/col27 {1.000 0.500 0.500 srgb} bind def
/col28 {1.000 0.630 0.630 srgb} bind def
/col29 {1.000 0.750 0.750 srgb} bind def
/col30 {1.000 0.880 0.880 srgb} bind def
/col31 {1.000 0.840 0.000 srgb} bind def

end
save
newpath 0 138 moveto 0 0 lineto 214 0 lineto 214 138 lineto closepath clip newpath
-26.0 141.0 translate
1 -1 scale

/cp {closepath} bind def
/ef {eofill} bind def
/gr {grestore} bind def
/gs {gsave} bind def
/sa {save} bind def
/rs {restore} bind def
/l {lineto} bind def
/m {moveto} bind def
/rm {rmoveto} bind def
/n {newpath} bind def
/s {stroke} bind def
/sh {show} bind def
/slc {setlinecap} bind def
/slj {setlinejoin} bind def
/slw {setlinewidth} bind def
/srgb {setrgbcolor} bind def
/rot {rotate} bind def
/sc {scale} bind def
/sd {setdash} bind def
/ff {findfont} bind def
/sf {setfont} bind def
/scf {scalefont} bind def
/sw {stringwidth} bind def
/tr {translate} bind def
/tnt {dup dup currentrgbcolor
  4 -2 roll dup 1 exch sub 3 -1 roll mul add
  4 -2 roll dup 1 exch sub 3 -1 roll mul add
  4 -2 roll dup 1 exch sub 3 -1 roll mul add srgb}
  bind def
/shd {dup dup currentrgbcolor 4 -2 roll mul 4 -2 roll mul
  4 -2 roll mul srgb} bind def
/reencdict 12 dict def /ReEncode { reencdict begin
/newcodesandnames exch def /newfontname exch def /basefontname exch def
/basefontdict basefontname findfont def /newfont basefontdict maxlength dict def
basefontdict { exch dup /FID ne { dup /Encoding eq
{ exch dup length array copy newfont 3 1 roll put }
{ exch newfont 3 1 roll put } ifelse } { pop pop } ifelse } forall
newfont /FontName newfontname put newcodesandnames aload pop
128 1 255 { newfont /Encoding get exch /.notdef put } for
newcodesandnames length 2 idiv { newfont /Encoding get 3 1 roll put } repeat
newfontname newfont definefont pop end } def
/isovec [
8#055 /minus 8#200 /grave 8#201 /acute 8#202 /circumflex 8#203 /tilde
8#204 /macron 8#205 /breve 8#206 /dotaccent 8#207 /dieresis
8#210 /ring 8#211 /cedilla 8#212 /hungarumlaut 8#213 /ogonek 8#214 /caron
8#220 /dotlessi 8#230 /oe 8#231 /OE
8#240 /space 8#241 /exclamdown 8#242 /cent 8#243 /sterling
8#244 /currency 8#245 /yen 8#246 /brokenbar 8#247 /section 8#250 /dieresis
8#251 /copyright 8#252 /ordfeminine 8#253 /guillemotleft 8#254 /logicalnot
8#255 /hypen 8#256 /registered 8#257 /macron 8#260 /degree 8#261 /plusminus
8#262 /twosuperior 8#263 /threesuperior 8#264 /acute 8#265 /mu 8#266 /paragraph
8#267 /periodcentered 8#270 /cedilla 8#271 /onesuperior 8#272 /ordmasculine
8#273 /guillemotright 8#274 /onequarter 8#275 /onehalf
8#276 /threequarters 8#277 /questiondown 8#300 /Agrave 8#301 /Aacute
8#302 /Acircumflex 8#303 /Atilde 8#304 /Adieresis 8#305 /Aring
8#306 /AE 8#307 /Ccedilla 8#310 /Egrave 8#311 /Eacute
8#312 /Ecircumflex 8#313 /Edieresis 8#314 /Igrave 8#315 /Iacute
8#316 /Icircumflex 8#317 /Idieresis 8#320 /Eth 8#321 /Ntilde 8#322 /Ograve
8#323 /Oacute 8#324 /Ocircumflex 8#325 /Otilde 8#326 /Odieresis 8#327 /multiply
8#330 /Oslash 8#331 /Ugrave 8#332 /Uacute 8#333 /Ucircumflex
8#334 /Udieresis 8#335 /Yacute 8#336 /Thorn 8#337 /germandbls 8#340 /agrave
8#341 /aacute 8#342 /acircumflex 8#343 /atilde 8#344 /adieresis 8#345 /aring
8#346 /ae 8#347 /ccedilla 8#350 /egrave 8#351 /eacute
8#352 /ecircumflex 8#353 /edieresis 8#354 /igrave 8#355 /iacute
8#356 /icircumflex 8#357 /idieresis 8#360 /eth 8#361 /ntilde 8#362 /ograve
8#363 /oacute 8#364 /ocircumflex 8#365 /otilde 8#366 /odieresis 8#367 /divide
8#370 /oslash 8#371 /ugrave 8#372 /uacute 8#373 /ucircumflex
8#374 /udieresis 8#375 /yacute 8#376 /thorn 8#377 /ydieresis] def
/Times-Roman /Times-Roman-iso isovec ReEncode
/Times-Bold /Times-Bold-iso isovec ReEncode
/$F2psBegin {$F2psDict begin /$F2psEnteredState save def} def
/$F2psEnd {$F2psEnteredState restore end} def

$F2psBegin
%%Page: 1 1
10 setmiterlimit
 0.06000 0.06000 sc
/Times-Bold-iso ff 150.00 scf sf
3225 525 m
gs 1 -1 sc (titre) col0 sh gr
/Times-Roman-iso ff 150.00 scf sf
3225 825 m
gs 1 -1 sc (producteur) col0 sh gr
/Times-Bold-iso ff 150.00 scf sf
600 1800 m
gs 1 -1 sc (id) col0 sh gr
/Times-Roman-iso ff 150.00 scf sf
600 2100 m
gs 1 -1 sc (ann\351e) col0 sh gr
% Polyline
7.500 slw
n 2925 600 m
 2250 600 l gs col0 s gr 
% Polyline
n 1500 300 m
 2250 300 l gs col0 s gr 
% Polyline
n 1800 900 m 1800 1725 l
 3000 1725 l gs col0 s gr 
% Polyline
n 825 1350 m 825 525 l
 1500 525 l gs col0 s gr 
% Polyline
n 2925 525 m 3150 525 l 3150 750 l 2925 750 l
 cp gs col0 s gr 
/Times-Bold-iso ff 150.00 scf sf
3075 1875 m
gs 1 -1 sc (id) col0 sh gr
/Times-Roman-iso ff 150.00 scf sf
3075 2175 m
gs 1 -1 sc (pr\351nom) col0 sh gr
/Times-Roman-iso ff 150.00 scf sf
2325 1875 m
gs 1 -1 sc (joue sur) col0 sh gr
/Times-Bold-iso ff 150.00 scf sf
2962 675 m
gs 1 -1 sc (no) col0 sh gr
/Times-Roman-iso ff 150.00 scf sf
1575 750 m
gs 1 -1 sc (dateEnreg) col0 sh gr
% Polyline
n 3150 300 m
 3975 300 l gs col-1 s gr 
% Polyline
n 3255 75 m 3150 75 3150 945 105 arcto 4 {pop} repeat
  3150 1050 3870 1050 105 arcto 4 {pop} repeat
  3975 1050 3975 180 105 arcto 4 {pop} repeat
  3975 75 3255 75 105 arcto 4 {pop} repeat
 cp gs col-1 s gr 
/Times-Roman-iso ff 150.00 scf sf
3225 225 m
gs 1 -1 sc (Disque) col-1 sh gr
/Times-Roman-iso ff 150.00 scf sf
3225 675 m
gs 1 -1 sc (ann\351e) col-1 sh gr
% Polyline
n 450 1650 m
 1200 1650 l gs col-1 s gr 
% Polyline
n 555 1350 m 450 1350 450 2145 105 arcto 4 {pop} repeat
  450 2250 1095 2250 105 arcto 4 {pop} repeat
  1200 2250 1200 1455 105 arcto 4 {pop} repeat
  1200 1350 555 1350 105 arcto 4 {pop} repeat
 cp gs col-1 s gr 
/Times-Roman-iso ff 150.00 scf sf
601 1576 m
gs 1 -1 sc (Oeuvre) col-1 sh gr
/Times-Roman-iso ff 150.00 scf sf
600 1950 m
gs 1 -1 sc (titre) col-1 sh gr
% Polyline
n 3105 1350 m 3000 1350 3000 2220 105 arcto 4 {pop} repeat
  3000 2325 3645 2325 105 arcto 4 {pop} repeat
  3750 2325 3750 1455 105 arcto 4 {pop} repeat
  3750 1350 3105 1350 105 arcto 4 {pop} repeat
 cp gs col-1 s gr 
% Polyline
n 3000 1650 m
 3750 1650 l gs col-1 s gr 
% Polyline
n 1575 76 m 1500 76 1500 825 75 arcto 4 {pop} repeat
  1500 900 2175 900 75 arcto 4 {pop} repeat
  2250 900 2250 151 75 arcto 4 {pop} repeat
  2250 76 1575 76 75 arcto 4 {pop} repeat
 cp gs col-1 s gr 
/Times-Roman-iso ff 150.00 scf sf
1650 225 m
gs 1 -1 sc (Plage) col-1 sh gr
/Times-Roman-iso ff 150.00 scf sf
3075 1575 m
gs 1 -1 sc (Interpr\350te) col-1 sh gr
/Times-Roman-iso ff 150.00 scf sf
3075 2025 m
gs 1 -1 sc (nom) col-1 sh gr
/Times-Roman-iso ff 150.00 scf sf
1575 525 m
gs 1 -1 sc (dur\351e) col-1 sh gr
$F2psEnd
rs
