#FIG 3.2
Portrait
Center
Inches
A4      
100.00
Single
-2
1200 2
6 300 2775 1950 3225
2 1 0 1 -1 7 0 0 -1 0.000 0 0 7 1 0 2
	1 1 1.00 60.00 120.00
	 301 3151 976 3151
2 1 2 1 -1 7 0 0 -1 3.000 0 0 -1 1 0 2
	0 0 1.00 60.00 120.00
	 301 2926 976 2926
4 0 -1 0 0 -1 10 0.0000 4 135 810 1126 2926 Comparaison\001
4 0 -1 0 0 -1 10 0.0000 4 105 735 1126 3151 Association\001
-6
2 1 0 1 -1 7 0 0 -1 0.000 0 0 -1 1 0 2
	3 1 1.00 60.00 120.00
	 1350 1425 2775 2100
2 1 2 1 -1 7 0 0 -1 3.000 0 0 7 1 0 2
	0 0 1.00 60.00 120.00
	 1125 150 2775 150
2 1 2 1 -1 7 0 0 -1 3.000 0 0 7 1 0 2
	0 0 1.00 60.00 120.00
	 1125 225 2775 300
2 1 2 1 -1 7 0 0 -1 3.000 0 0 7 1 0 2
	0 0 1.00 60.00 120.00
	 1125 225 2775 450
2 1 2 1 -1 7 0 0 -1 3.000 0 0 7 1 0 2
	0 0 1.00 60.00 120.00
	 1125 225 2775 600
2 1 2 1 -1 7 0 0 -1 3.000 0 0 7 1 0 2
	0 0 1.00 60.00 120.00
	 1350 1425 2775 1425
2 1 2 1 -1 7 0 0 -1 3.000 0 0 7 1 0 2
	0 0 1.00 60.00 120.00
	 1125 225 2775 975
2 1 2 1 -1 7 0 0 -1 3.000 0 0 7 1 0 2
	0 0 1.00 60.00 120.00
	 1125 225 2775 1125
2 1 0 1 -1 7 0 0 -1 0.000 0 0 7 1 0 2
	1 1 1.00 60.00 120.00
	 1125 225 2775 825
2 1 2 1 -1 7 0 0 -1 3.000 0 0 7 1 0 2
	0 0 1.00 60.00 120.00
	 1425 1425 2775 1725
2 1 2 1 -1 7 0 0 -1 3.000 0 0 7 1 0 2
	0 0 1.00 60.00 120.00
	 1425 1425 2775 1875
2 1 2 1 -1 7 0 0 -1 3.000 0 0 7 1 0 2
	0 0 1.00 60.00 120.00
	 1350 1425 2775 1950
2 1 2 1 -1 7 0 0 -1 3.000 0 0 7 1 0 2
	0 0 1.00 60.00 120.00
	 1350 1425 2775 2325
2 1 2 1 -1 7 0 0 -1 3.000 0 0 -1 1 0 2
	0 0 1.00 60.00 120.00
	 1425 1425 2775 1575
4 0 0 50 0 1 10 0.0000 4 150 780 300 225 Vertigo 1958\001
4 0 0 50 0 1 10 0.0000 4 105 1005 300 1500 Annie Hall 1977\001
4 0 0 50 0 1 10 0.0000 4 105 1710 300 2625 Brazil  1984                      .......\001
4 0 -1 0 0 3 12 0.0000 4 15 180 3602 1427     \001
4 0 -1 0 0 3 12 0.0000 4 15 180 3602 226     \001
4 0 0 50 0 1 10 0.0000 4 150 1095 2851 2326 Kubrik       Shining\001
4 0 0 50 0 1 10 0.0000 4 105 1320 2851 2176 Allen          Annie Hall\001
4 0 0 50 0 1 10 0.0000 4 150 1155 2851 2026 Hitchcock  Vertigo\001
4 0 0 50 0 1 10 0.0000 4 150 1305 2851 1876 Lang          Metropolis\001
4 0 0 50 0 1 10 0.0000 4 105 1395 2776 1726  Allen           Manhattan\001
4 0 0 50 0 1 10 0.0000 4 150 1320 2851 1576 Hitchcock   Psychose\001
4 0 0 50 0 1 10 0.0000 4 150 1545 2854 1428 Spielberg    Jurassic Park\001
4 0 0 50 0 1 10 0.0000 4 150 1095 2851 1125 Kubrik       Shining\001
4 0 0 50 0 1 10 0.0000 4 105 1320 2851 975 Allen          Annie Hall\001
4 0 0 50 0 1 10 0.0000 4 150 1155 2851 825 Hitchcock  Vertigo\001
4 0 0 50 0 1 10 0.0000 4 150 1305 2851 675 Lang          Metropolis\001
4 0 0 50 0 1 10 0.0000 4 105 1395 2776 525  Allen           Manhattan\001
4 0 0 50 0 1 10 0.0000 4 150 1320 2851 375 Hitchcock   Psychose\001
4 0 0 50 0 1 10 0.0000 4 150 1545 2854 227 Spielberg    Jurassic Park\001
