#FIG 3.2
Landscape
Center
Metric
A4      
100.00
Single
-2
1200 2
1 1 0 1 -1 -1 0 0 -1 0.000 1 0.0000 2025 1725 375 150 2025 1725 2400 1875
1 1 0 1 -1 -1 0 0 -1 0.000 1 0.0000 4800 1725 375 150 4800 1725 5175 1875
1 1 0 1 -1 -1 0 0 -1 0.000 1 0.0000 3300 825 375 150 3300 825 3675 975
1 1 0 1 -1 -1 0 0 -1 0.000 1 0.0000 3300 225 375 150 3300 225 3675 375
1 1 0 1 -1 -1 0 0 -1 0.000 1 0.0000 1380 2505 375 150 1380 2505 1755 2655
2 1 0 1 -1 -1 0 0 -1 0.000 0 0 -1 0 0 2
	 5250 3300 5250 2775
2 1 0 1 -1 -1 0 0 -1 0.000 0 0 -1 0 0 2
	 5175 2550 4950 1875
2 1 0 1 -1 -1 0 0 -1 0.000 0 0 -1 0 0 2
	 4650 1575 3675 825
2 1 0 1 -1 -1 0 0 -1 0.000 0 0 -1 0 0 2
	 3000 3300 3000 2775
2 1 0 1 -1 -1 0 0 -1 0.000 0 0 -1 0 0 2
	 3000 2550 2325 1800
2 1 0 1 -1 -1 0 0 -1 0.000 0 0 -1 0 0 2
	 2175 1575 2925 900
2 1 0 1 -1 -1 0 0 -1 0.000 0 0 -1 0 0 2
	 1395 2385 1650 1725
2 1 0 1 -1 -1 0 0 -1 0.000 0 0 -1 0 0 2
	 3300 375 3300 675
2 2 0 1 -1 -1 0 0 -1 0.000 0 0 0 0 0 5
	 1425 3525 1425 3300 600 3300 600 3525 1425 3525
2 2 0 1 -1 -1 0 0 -1 0.000 0 0 0 0 0 5
	 3375 2775 3375 2550 2550 2550 2550 2775 3375 2775
2 2 0 1 -1 -1 0 0 -1 0.000 0 0 0 0 0 5
	 5625 2775 5625 2550 4800 2550 4800 2775 5625 2775
2 2 0 1 -1 -1 0 0 -1 0.000 0 0 0 0 0 5
	 6225 3525 6225 3300 4500 3300 4500 3525 6225 3525
2 1 0 1 -1 -1 0 0 -1 0.000 0 0 -1 0 0 2
	 990 3285 1280 2666
2 2 0 1 -1 -1 0 0 -1 0.000 0 0 0 0 0 5
	 4140 3510 4140 3300 2175 3300 2175 3510 4140 3510
4 0 -1 0 0 0 10 0.0000 4 105 510 1800 1800 Jointure\001
4 0 -1 0 0 0 10 0.0000 4 105 510 3075 900 Jointure\001
4 0 -1 0 0 0 10 0.0000 4 135 645 3000 300 Projection\001
4 0 -1 0 0 0 10 0.0000 4 105 495 2250 2475 Adresse\001
4 0 -1 0 0 0 10 0.0000 4 105 495 4500 2475 Adresse\001
4 0 -1 0 0 0 10 0.0000 4 150 615 300 3225 S\351quentiel\001
4 0 -1 0 0 2 10 0.0000 4 165 1350 4575 3450 Index Film (idFilm)\001
4 0 -1 0 0 0 10 0.0000 4 105 435 4425 3225 idFilm\001
4 0 -1 0 0 2 10 0.0000 4 120 315 5025 2700 Film\001
4 0 -1 0 0 0 10 0.0000 4 150 540 4500 1800 S\351lection\001
4 0 -1 0 0 0 10 0.0000 4 105 300 4200 1575 1958\001
4 0 -1 0 0 2 10 0.0000 4 120 465 750 3450 Artiste\001
4 0 -1 0 0 0 10 0.0000 4 150 540 1125 2520 S\351lection\001
4 0 -1 0 0 0 10 0.0000 4 105 885 540 2295 James Stewart\001
4 0 -1 0 0 2 10 0.0000 4 105 315 2790 2700 Role\001
4 0 -1 0 0 2 10 0.0000 4 165 1995 2250 3465 Index Role(idActeur, idFilm)\001
4 0 -1 0 0 0 10 0.0000 4 105 600 2025 3225 IdArtiste\001
4 0 0 50 0 0 10 0.0000 4 135 495 1125 1845 [artiste]\001
4 0 0 50 0 0 10 0.0000 4 135 345 2655 2070 [role]\001
4 0 0 50 0 0 10 0.0000 4 135 795 1980 1080 [artiste,role]\001
4 0 0 50 0 0 10 0.0000 4 135 375 4140 1080 [film]\001
