#FIG 3.2  Produced by xfig version 3.2.5-alpha5
Landscape
Center
Metric
A4      
100.00
Single
-2
1200 2
6 315 495 1305 1665
4 0 0 50 -1 0 8 0.0000 4 105 270 315 585 main{\001
4 0 0 50 -1 0 8 0.0000 4 90 645 315 735 char* maVar;\001
4 0 0 50 -1 0 8 0.0000 4 105 960 315 1035 exec sql connect...\001
4 0 0 50 -1 0 8 0.0000 4 105 900 315 1185 exec sql select ...\001
4 0 0 50 -1 0 8 0.0000 4 120 405 315 1485 printf ...\001
4 0 0 50 -1 0 8 0.0000 4 105 45 315 1635 }\001
-6
6 3105 540 4230 1710
4 0 0 50 -1 0 8 0.0000 4 105 270 3105 630 main{\001
4 0 0 50 -1 0 8 0.0000 4 90 645 3105 780 char* maVar;\001
4 0 0 50 -1 0 8 0.0000 4 105 1095 3105 1080 call OCIConnect(...);\001
4 0 0 50 -1 0 8 0.0000 4 105 930 3105 1230 call OCIExec(...);\001
4 0 0 50 -1 0 8 0.0000 4 120 405 3105 1530 printf ...\001
4 0 0 50 -1 0 8 0.0000 4 105 45 3105 1680 }\001
-6
6 4950 90 5490 450
4 0 0 50 -1 0 10 0.0000 4 105 540 4950 225 Librairie\001
4 0 0 50 -1 0 10 0.0000 4 105 270 4950 420 OCI\001
-6
6 4905 1755 5625 2115
4 0 0 50 -1 0 10 0.0000 4 135 720 4905 1890 Programme\001
4 0 0 50 -1 0 10 0.0000 4 120 660 4905 2085 ex\351cutable\001
-6
2 2 0 1 0 7 50 -1 -1 0.000 0 0 -1 0 0 5
	 180 405 1440 405 1440 1755 180 1755 180 405
2 4 0 1 0 7 50 -1 -1 0.000 0 0 7 0 0 5
	 5625 495 5625 45 4770 45 4770 495 5625 495
2 1 0 1 0 7 50 -1 -1 0.000 0 0 -1 1 0 2
	1 1 1.00 60.00 120.00
	 1440 1125 2925 1125
2 2 0 1 0 7 50 -1 -1 0.000 0 0 -1 0 0 5
	 2925 450 4365 450 4365 1800 2925 1800 2925 450
2 1 0 1 0 7 50 -1 -1 0.000 0 0 -1 0 0 2
	 4365 1080 5400 1080
2 1 0 1 0 7 50 -1 -1 0.000 0 0 -1 1 0 2
	1 1 1.00 60.00 120.00
	 5400 495 5400 1710
4 0 0 50 -1 0 10 0.0000 4 165 1575 2700 2025 Programme C pr\351compil\351\001
4 0 0 50 -1 0 10 0.0000 4 135 1155 225 2025 Programme Pro*C\001
4 0 0 50 -1 0 10 0.0000 4 165 960 1620 1035 Pr\351compilateur\001
4 0 0 50 -1 0 10 0.0000 4 150 795 4455 990 Compilateur\001
4 0 0 50 -1 0 10 0.0000 4 105 465 4860 1305 Edition\001
4 0 0 50 -1 0 10 0.0000 4 105 465 4860 1485 de liens\001
