#FIG 3.1
Portrait
Center
Inches
1200 2
2 2 0 1 -1 7 0 0 -1 0.000 0 0 0 0 0 5
	 308 142 1313 142 1313 450 308 450 308 142
2 2 0 1 -1 7 0 0 -1 0.000 0 0 0 0 0 5
	 263 1042 1268 1042 1268 1350 263 1350 263 1042
2 1 0 1 -1 7 0 0 -1 0.000 0 0 -1 0 0 1
	 750 450
2 1 0 1 -1 7 0 0 -1 0.000 0 0 -1 0 0 1
	 750 450
2 1 0 1 -1 7 0 0 -1 0.000 0 0 -1 1 0 2
	1 1 1.00 60.00 120.00
	 750 450 750 1050
4 0 -1 0 0 1 12 0.0000000 4 135 135 675 375 U\001
4 0 -1 0 0 1 12 0.0000000 4 135 105 675 1275 V\001
