#FIG 3.1
Portrait
Center
Inches
1200 2
6 150 225 4875 2550
6 1883 1835 2333 2138
4 0 -1 0 0 1 10 0.0000000 4 105 450 1883 1940 Grande\001
4 0 -1 0 0 1 10 0.0000000 4 105 285 1883 2138 salle\001
-6
6 3856 1865 4651 2198
4 0 -1 0 0 1 10 0.0000000 4 105 300 3856 1970 Salle\001
4 0 -1 0 0 1 10 0.0000000 4 135 795 3856 2168 panoramique\001
-6
6 3091 1850 3691 2153
4 0 -1 0 0 1 10 0.0000000 4 105 300 3091 1955 Salle\001
4 0 -1 0 0 1 10 0.0000000 4 105 600 3091 2153 Duchemin\001
-6
1 2 0 1 -1 7 0 0 -1 0.0000000 1 0.000 1813 1982 697 341 1116 1641 2511 2324
1 2 0 1 -1 7 0 0 -1 0.0000000 1 0.000 3811 2052 975 371 2836 1681 4786 2423
2 4 0 1 -1 7 0 0 -1 0.000 0 0 7 0 0 5
	 3728 826 3728 248 1478 248 1478 826 3728 826
2 4 0 1 -1 7 0 0 -1 0.000 0 0 7 0 0 5
	 4823 2483 4823 1418 856 1418 856 2483 4823 2483
2 1 0 1 -1 7 0 0 -1 0.000 0 0 -1 1 0 2
	0 0 1.00 60.00 120.00
	 1913 578 1718 1636
2 1 0 1 -1 7 0 0 -1 0.000 0 0 -1 1 0 2
	0 0 1.00 60.00 120.00
	 3113 638 3661 1688
4 0 -1 0 0 1 10 0.0000000 4 105 420 1268 2056 Salle 1\001
4 0 -1 0 0 1 10 0.0000000 4 105 465 1718 556 Le REX\001
4 0 -1 0 0 1 10 0.0000000 4 105 555 2873 564 Le KINO\001
4 0 -1 0 0 1 10 0.0000000 4 105 510 233 1906 SALLES\001
4 0 -1 0 0 1 10 0.0000000 4 105 630 226 578 CINEMAS\001
4 0 -1 0 0 1 10 0.0000000 4 135 825 188 773 (proprietaire)\001
4 0 -1 0 0 1 10 0.0000000 4 135 555 218 2093 (membre)\001
-6
