#FIG 3.2
Portrait
Center
Inches
A4      
100.00
Single
-2
1200 2
6 2625 3750 3525 4425
2 1 0 1 -1 7 0 0 -1 0.000 0 0 -1 0 0 2
	 2626 3976 3451 3976
2 4 0 1 0 7 50 0 -1 0.000 0 0 7 0 0 5
	 3450 4425 3450 3750 2625 3750 2625 4425 3450 4425
4 0 -1 0 0 -1 10 0.0000 4 105 450 2776 3901 Terrain\001
4 0 -1 0 0 -1 10 0.0000 4 105 435 2775 4275 surface\001
4 0 0 50 0 2 10 0.0000 4 75 180 2775 4125 no\001
-6
2 1 0 1 -1 7 0 0 -1 0.000 0 0 -1 0 0 2
	 152 3976 977 3976
2 4 0 1 0 7 50 0 -1 0.000 0 0 7 0 0 5
	 975 4425 975 3750 150 3750 150 4425 975 4425
2 1 0 1 0 7 50 0 -1 0.000 0 0 -1 0 0 3
	 525 4425 525 5100 1500 5100
2 1 0 1 0 7 50 0 -1 0.000 0 0 7 0 0 3
	 975 4125 1875 4125 1875 4650
2 1 0 1 -1 7 0 0 -1 0.000 0 0 -1 0 0 2
	 1501 4870 2327 4870
2 4 0 1 0 7 50 0 -1 0.000 0 0 7 0 0 5
	 2325 5325 2325 4650 1500 4650 1500 5325 2325 5325
2 1 0 1 0 7 50 0 -1 0.000 0 0 -1 0 0 3
	 2325 5100 3000 5100 3000 4425
4 0 -1 0 0 -1 10 0.0000 4 105 405 225 3900 Joueur\001
4 0 -1 0 0 -1 10 0.0000 4 75 270 225 4275 nom\001
4 0 0 50 0 2 10 0.0000 4 105 555 225 4125 noCarte\001
4 0 -1 0 0 -1 10 0.0000 4 105 405 1650 4800 Match\001
4 0 0 50 0 2 10 0.0000 4 120 135 1650 5025 id\001
4 0 -1 0 0 -1 10 0.0000 4 105 435 1650 5175 horaire\001
4 0 -1 0 0 -1 10 0.0000 4 135 645 2475 5250 Se joue sur\001
4 0 0 50 0 0 10 0.0000 4 105 240 1275 5250 0..*\001
4 0 0 50 0 0 10 0.0000 4 105 240 1950 4575 0..*\001
4 0 0 50 0 0 10 0.0000 4 105 240 2400 5025 0..*\001
4 0 0 50 0 0 10 0.0000 4 105 240 600 4575 2..2\001
4 0 0 50 0 0 10 0.0000 4 105 270 225 4875 Joue\001
4 0 0 50 0 0 10 0.0000 4 135 375 1350 4050 Gagne\001
4 0 0 50 0 0 10 0.0000 4 105 240 1050 4275 1..1\001
4 0 0 50 0 0 10 0.0000 4 105 240 3075 4575 1..1\001
