#FIG 3.2  Produced by xfig version 3.2.5-alpha5
Landscape
Center
Metric
A4      
100.00
Single
-2
1200 2
5 1 0 1 0 7 50 -1 -1 0.000 0 0 1 0 1507.500 1652.500 1170 540 1845 540 2430 945
	1 1 1.00 60.00 120.00
5 1 0 1 0 7 50 -1 -1 0.000 0 1 1 0 1530.000 726.750 1170 1800 1890 1800 2475 1350
	1 1 1.00 60.00 120.00
2 4 0 1 0 7 50 -1 -1 0.000 0 0 7 0 0 5
	 1170 765 1170 405 270 405 270 765 1170 765
2 4 0 1 0 7 50 -1 -1 0.000 0 0 7 0 0 5
	 1170 1395 1170 1035 270 1035 270 1395 1170 1395
2 4 0 1 0 7 50 -1 -1 0.000 0 0 7 0 0 5
	 1170 1980 1170 1620 270 1620 270 1980 1170 1980
2 4 0 1 0 7 50 -1 -1 0.000 0 0 7 0 0 5
	 3285 1350 3285 900 2385 900 2385 1350 3285 1350
2 1 0 1 0 7 50 -1 -1 0.000 0 0 -1 1 0 2
	1 1 1.00 60.00 120.00
	 1170 1215 2430 1215
2 1 0 1 0 7 50 -1 -1 0.000 0 0 -1 1 0 2
	1 1 1.00 60.00 120.00
	 3285 1125 4770 1125
2 4 0 1 0 7 50 -1 -1 0.000 0 0 7 0 0 5
	 5625 1350 5625 900 4725 900 4725 1350 5625 1350
2 1 0 1 0 7 50 -1 -1 0.000 0 0 -1 1 0 2
	1 1 1.00 60.00 120.00
	 5175 1350 5175 2115
4 0 0 50 -1 0 10 0.0000 6 105 705 360 630 Processus 1\001
4 0 0 50 -1 0 10 0.0000 6 105 705 315 1845 Processus 3\001
4 0 0 50 -1 0 10 0.0000 6 105 705 360 1260 Processus 2\001
4 0 0 50 -1 0 10 0.0000 6 165 540 2070 585 $r_1(s)$\001
4 0 0 50 -1 0 10 0.0000 6 105 465 2565 1170 Serveur\001
4 0 0 50 -1 0 10 0.0000 6 165 540 1440 405 $r_1(c)$\001
4 0 0 50 -1 0 10 0.0000 6 165 570 1395 1080 $r_2(s')$\001
4 0 0 50 -1 0 10 0.0000 6 165 540 2115 1890 $r_3(s)$\001
4 0 0 50 -1 0 10 0.0000 6 165 570 1485 2115 $r_3(c')$\001
4 0 0 50 -1 0 10 0.0000 6 105 705 4860 1170 Controleur\001
4 0 0 50 -1 0 10 0.0000 6 165 1530 3465 990 $r_1(c) ; r_3(s) ; r_1(s)$\001
4 0 0 50 -1 0 10 0.0000 6 150 420 4950 2295 Disque\001
4 0 0 50 -1 0 10 0.0000 6 165 540 4590 2025 $r_1(s)$\001
4 0 0 50 -1 0 10 0.0000 6 165 540 4590 1800 $r_1(c)$\001
4 0 0 50 -1 0 10 0.0000 6 165 540 4590 1575 $r_3(s)$\001
