\boolfalse {citerequest}\boolfalse {citetracker}\boolfalse {pagetracker}\boolfalse {backtracker}\relax 
\babel@toc {french}{}
\addvspace {10\p@ }
\addvspace {10\p@ }
\contentsline {table}{\numberline {\relax 2.1}{\ignorespaces Comparaison des différentes représentations (sur $n$ bits).\relax }}{45}{table.caption.30}% 
\addvspace {10\p@ }
\addvspace {10\p@ }
\contentsline {table}{\numberline {\relax 4.1}{\ignorespaces Les 4 opérations de notre exemple d'ALU, ainsi que les entrées qui y correspondent.\relax }}{121}{table.caption.111}% 
\addvspace {10\p@ }
\contentsline {table}{\numberline {\relax 5.1}{\ignorespaces Les opcodes IJVM que nous utiliserons. NB: par souci de cohérence de ces notes, nous avons adopté des opcodes différents de ceux de \cite {tanenbaum}.\relax }}{151}{table.caption.141}% 
\addvspace {10\p@ }
\addvspace {10\p@ }
\addvspace {10\p@ }
\addvspace {10\p@ }
\addvspace {10\p@ }
