\relax 
\providecommand\hyper@newdestlabel[2]{}
\@writefile{toc}{\contentsline {chapter}{\numberline {2}Leçons 2 à 4 -- Représentation de l'information}{29}{chapter.2}\protected@file@percent }
\@writefile{lof}{\addvspace {10\p@ }}
\@writefile{lot}{\addvspace {10\p@ }}
\@writefile{lol}{\addvspace {10\p@ }}
\newlabel{cha:info}{{2}{29}{Leçons 2 à 4 -- Représentation de l'information}{chapter.2}{}}
\@writefile{toc}{\contentsline {section}{\numberline {2.1}Unités de quantité d'information}{30}{section.2.1}\protected@file@percent }
\@writefile{toc}{\contentsline {section}{\numberline {2.2}\'Ecriture des nombres dans différentes bases}{31}{section.2.2}\protected@file@percent }
\newlabel{eq:base-devel}{{\relax 2.2}{32}{\'Ecriture des nombres dans différentes bases}{equation.2.2.1}{}}
\@writefile{toc}{\contentsline {paragraph}{\nonumberline Chiffres de poids fort, de poids faible}{33}{section*.15}\protected@file@percent }
\@writefile{toc}{\contentsline {paragraph}{\nonumberline Ajouts de zéros}{33}{section*.16}\protected@file@percent }
\@writefile{toc}{\contentsline {paragraph}{\nonumberline Multiplier ou diviser par la base}{33}{section*.17}\protected@file@percent }
\@writefile{toc}{\contentsline {paragraph}{\nonumberline Combien de nombres représentables sur $n$ chiffres ?}{34}{section*.18}\protected@file@percent }
\@writefile{toc}{\contentsline {subsection}{\numberline {2.2.1}Changements de base}{34}{subsection.2.2.1}\protected@file@percent }
\@writefile{toc}{\contentsline {paragraph}{\nonumberline Cas des nombres entiers}{35}{section*.19}\protected@file@percent }
\newlabel{eq:1}{{\relax 2.3}{35}{Cas des nombres entiers}{equation.2.2.3}{}}
\newlabel{eq:2}{{\relax 2.4}{35}{Cas des nombres entiers}{equation.2.2.4}{}}
\@writefile{toc}{\contentsline {paragraph}{\nonumberline Nombres réels}{36}{section*.20}\protected@file@percent }
\newlabel{eq:4}{{\relax 2.5}{37}{Nombres réels}{equation.2.2.5}{}}
\newlabel{eq:3}{{\relax 2.6}{37}{Nombres réels}{equation.2.2.6}{}}
\newlabel{eq:5}{{\relax 2.7}{37}{Nombres réels}{equation.2.2.7}{}}
\@writefile{toc}{\contentsline {subsection}{\numberline {2.2.2}Opérations en base 2}{38}{subsection.2.2.2}\protected@file@percent }
\@writefile{toc}{\contentsline {paragraph}{\nonumberline Opérations arithmétiques}{39}{section*.21}\protected@file@percent }
\@writefile{toc}{\contentsline {paragraph}{\nonumberline Opérations logiques}{39}{section*.22}\protected@file@percent }
\@writefile{toc}{\contentsline {paragraph}{\nonumberline Masques}{40}{section*.23}\protected@file@percent }
\@writefile{toc}{\contentsline {paragraph}{\nonumberline Décalages, division et multiplications}{40}{section*.24}\protected@file@percent }
\@writefile{toc}{\contentsline {subsection}{\numberline {2.2.3}Représentation des entiers non-signés}{41}{subsection.2.2.3}\protected@file@percent }
\@writefile{toc}{\contentsline {subsection}{\numberline {2.2.4}Représentation des nombres entiers signés}{41}{subsection.2.2.4}\protected@file@percent }
\@writefile{toc}{\contentsline {paragraph}{\nonumberline Bit de signe}{42}{section*.25}\protected@file@percent }
\@writefile{toc}{\contentsline {paragraph}{\nonumberline Complément à 1}{42}{section*.26}\protected@file@percent }
\@writefile{toc}{\contentsline {paragraph}{\nonumberline Complément à 2}{43}{section*.27}\protected@file@percent }
\@writefile{toc}{\contentsline {paragraph}{\nonumberline Excès à $K$}{44}{section*.28}\protected@file@percent }
\@writefile{toc}{\contentsline {paragraph}{\nonumberline Comparaison des différentes représentation}{44}{section*.29}\protected@file@percent }
\@writefile{lot}{\contentsline {table}{\numberline {\relax 2.1}{\ignorespaces Comparaison des différentes représentations (sur $n$ bits).\relax }}{45}{table.caption.30}\protected@file@percent }
\newlabel{tab:comparaison-repr}{{\relax 2.1}{45}{Comparaison des différentes représentations (sur $n$ bits).\relax }{table.caption.30}{}}
\@writefile{toc}{\contentsline {subsection}{\numberline {2.2.5}Représentation des nombres <<~réels~>>}{45}{subsection.2.2.5}\protected@file@percent }
\newlabel{sec:repr-ieee754}{{2.2.5}{45}{Représentation des nombres <<~réels~>>}{subsection.2.2.5}{}}
\@writefile{toc}{\contentsline {paragraph}{\nonumberline Une première technique: la virgule fixe}{45}{section*.31}\protected@file@percent }
\@writefile{toc}{\contentsline {paragraph}{\nonumberline La virgule flottante: IEEE754}{46}{section*.32}\protected@file@percent }
\@writefile{toc}{\contentsline {section}{\numberline {2.3}Représentation des caractères}{49}{section.2.3}\protected@file@percent }
\@writefile{toc}{\contentsline {paragraph}{\nonumberline Codes historiques: \'Emile \textsc  {Baudot} et les téléscripteurs}{49}{section*.34}\protected@file@percent }
\@writefile{toc}{\contentsline {paragraph}{\nonumberline Le code ASCII}{50}{section*.36}\protected@file@percent }
\@writefile{toc}{\contentsline {paragraph}{\nonumberline Unicode}{50}{section*.39}\protected@file@percent }
\@writefile{lof}{\contentsline {figure}{\numberline {\relax 2.1}{\ignorespaces Le code Baudot}}{51}{figure.caption.35}\protected@file@percent }
\newlabel{fig:baudot}{{\relax 2.1}{51}{Le code Baudot}{figure.caption.35}{}}
\@writefile{lof}{\contentsline {figure}{\numberline {\relax 2.2}{\ignorespaces Le code ASCII}}{52}{figure.caption.37}\protected@file@percent }
\newlabel{fig:ascii}{{\relax 2.2}{52}{Le code ASCII}{figure.caption.37}{}}
\@writefile{toc}{\contentsline {section}{\numberline {2.4}Représentation d'images}{52}{section.2.4}\protected@file@percent }
\newlabel{RF2}{53}
\@writefile{lof}{\contentsline {figure}{\numberline {\relax 2.3}{\ignorespaces Le {\textit  {Code Page}} 737}}{53}{figure.caption.38}\protected@file@percent }
\newlabel{fig:cp737}{{\relax 2.3}{53}{Le {\textit {Code Page}} 737}{figure.caption.38}{}}
\@writefile{lof}{\contentsline {figure}{\numberline {\relax 2.4}{\ignorespaces Extrait du standard Unicode, alphabet Tagbanwa \cite {wiki:tagbanwa}.\relax }}{54}{figure.caption.40}\protected@file@percent }
\newlabel{fig:unicode}{{\relax 2.4}{54}{Extrait du standard Unicode, alphabet Tagbanwa \cite {wiki:tagbanwa}.\relax }{figure.caption.40}{}}
\@writefile{toc}{\contentsline {section}{\numberline {2.5}Représentation des instructions}{54}{section.2.5}\protected@file@percent }
\newlabel{sec:repr-des-instr}{{2.5}{54}{Représentation des instructions}{section.2.5}{}}
\newlabel{RF3}{55}
\@writefile{lof}{\contentsline {figure}{\numberline {\relax 2.5}{\ignorespaces Un exemple de contenu de fichier PGM avec l'image qu'il représente\ldots  \relax }}{55}{figure.caption.41}\protected@file@percent }
\newlabel{fig:pgm}{{\relax 2.5}{55}{Un exemple de contenu de fichier PGM avec l'image qu'il représente\ldots \relax }{figure.caption.41}{}}
\@writefile{toc}{\contentsline {section}{\numberline {2.6}Détection et correction d'erreurs}{56}{section.2.6}\protected@file@percent }
\@writefile{toc}{\contentsline {subsection}{\numberline {2.6.1}Bit de parité}{56}{subsection.2.6.1}\protected@file@percent }
\@writefile{toc}{\contentsline {subsection}{\numberline {2.6.2}Code de \textsc  {Hamming}}{57}{subsection.2.6.2}\protected@file@percent }
\@writefile{toc}{\contentsline {subsection}{\numberline {2.6.3}Applications des codes correcteurs d'erreur}{60}{subsection.2.6.3}\protected@file@percent }
\@writefile{lof}{\contentsline {figure}{\numberline {\relax 2.6}{\ignorespaces Un code QR}}{61}{figure.caption.42}\protected@file@percent }
\newlabel{fig:qr-code}{{\relax 2.6}{61}{Un code QR}{figure.caption.42}{}}
\@writefile{toc}{\contentsline {section}{\numberline {2.7}Conclusion: sémantique d'une représentation binaire}{61}{section.2.7}\protected@file@percent }
\@writefile{lof}{\contentsline {figure}{\numberline {\relax 2.7}{\ignorespaces Une représentation, différentes interprétations}}{63}{figure.caption.43}\protected@file@percent }
\newlabel{fig:prog-repr-cpp}{{\relax 2.7}{63}{Une représentation, différentes interprétations}{figure.caption.43}{}}
\@setckpt{chapters/02-representation}{
\setcounter{page}{64}
\setcounter{equation}{7}
\setcounter{enumi}{2}
\setcounter{enumii}{0}
\setcounter{enumiii}{0}
\setcounter{enumiv}{0}
\setcounter{footnote}{20}
\setcounter{mpfootnote}{0}
\setcounter{part}{1}
\setcounter{chapter}{2}
\setcounter{section}{7}
\setcounter{subsection}{0}
\setcounter{subsubsection}{0}
\setcounter{paragraph}{0}
\setcounter{subparagraph}{0}
\setcounter{figure}{7}
\setcounter{table}{1}
\setcounter{FBcaption@count}{0}
\setcounter{parentequation}{0}
\setcounter{lstnumber}{4}
\setcounter{exo}{0}
\setcounter{exercice}{0}
\setcounter{questnum}{0}
\setcounter{Item}{28}
\setcounter{Hfootnote}{25}
\setcounter{Hy@AnnotLevel}{0}
\setcounter{bookmark@seq@number}{0}
\setcounter{r@tfl@t}{3}
\setcounter{tabx@nest}{0}
\setcounter{listtotal}{0}
\setcounter{listcount}{0}
\setcounter{liststart}{0}
\setcounter{liststop}{0}
\setcounter{citecount}{0}
\setcounter{citetotal}{0}
\setcounter{multicitecount}{0}
\setcounter{multicitetotal}{0}
\setcounter{instcount}{29}
\setcounter{maxnames}{3}
\setcounter{minnames}{1}
\setcounter{maxitems}{3}
\setcounter{minitems}{1}
\setcounter{citecounter}{0}
\setcounter{maxcitecounter}{0}
\setcounter{savedcitecounter}{0}
\setcounter{uniquelist}{0}
\setcounter{uniquename}{0}
\setcounter{refsection}{0}
\setcounter{refsegment}{0}
\setcounter{maxextratitle}{0}
\setcounter{maxextratitleyear}{0}
\setcounter{maxextraname}{2}
\setcounter{maxextradate}{0}
\setcounter{maxextraalpha}{0}
\setcounter{abbrvpenalty}{50}
\setcounter{highnamepenalty}{50}
\setcounter{lownamepenalty}{25}
\setcounter{maxparens}{3}
\setcounter{parenlevel}{0}
\setcounter{mincomprange}{10}
\setcounter{maxcomprange}{100000}
\setcounter{mincompwidth}{1}
\setcounter{afterword}{0}
\setcounter{savedafterword}{0}
\setcounter{annotator}{0}
\setcounter{savedannotator}{0}
\setcounter{author}{0}
\setcounter{savedauthor}{0}
\setcounter{bookauthor}{0}
\setcounter{savedbookauthor}{0}
\setcounter{commentator}{0}
\setcounter{savedcommentator}{0}
\setcounter{editor}{0}
\setcounter{savededitor}{0}
\setcounter{editora}{0}
\setcounter{savededitora}{0}
\setcounter{editorb}{0}
\setcounter{savededitorb}{0}
\setcounter{editorc}{0}
\setcounter{savededitorc}{0}
\setcounter{foreword}{0}
\setcounter{savedforeword}{0}
\setcounter{holder}{0}
\setcounter{savedholder}{0}
\setcounter{introduction}{0}
\setcounter{savedintroduction}{0}
\setcounter{namea}{0}
\setcounter{savednamea}{0}
\setcounter{nameb}{0}
\setcounter{savednameb}{0}
\setcounter{namec}{0}
\setcounter{savednamec}{0}
\setcounter{translator}{0}
\setcounter{savedtranslator}{0}
\setcounter{shortauthor}{0}
\setcounter{savedshortauthor}{0}
\setcounter{shorteditor}{0}
\setcounter{savedshorteditor}{0}
\setcounter{labelname}{0}
\setcounter{savedlabelname}{0}
\setcounter{institution}{0}
\setcounter{savedinstitution}{0}
\setcounter{lista}{0}
\setcounter{savedlista}{0}
\setcounter{listb}{0}
\setcounter{savedlistb}{0}
\setcounter{listc}{0}
\setcounter{savedlistc}{0}
\setcounter{listd}{0}
\setcounter{savedlistd}{0}
\setcounter{liste}{0}
\setcounter{savedliste}{0}
\setcounter{listf}{0}
\setcounter{savedlistf}{0}
\setcounter{location}{0}
\setcounter{savedlocation}{0}
\setcounter{organization}{0}
\setcounter{savedorganization}{0}
\setcounter{origlocation}{0}
\setcounter{savedoriglocation}{0}
\setcounter{origpublisher}{0}
\setcounter{savedorigpublisher}{0}
\setcounter{publisher}{0}
\setcounter{savedpublisher}{0}
\setcounter{language}{0}
\setcounter{savedlanguage}{0}
\setcounter{origlanguage}{0}
\setcounter{savedoriglanguage}{0}
\setcounter{pageref}{0}
\setcounter{savedpageref}{0}
\setcounter{textcitecount}{0}
\setcounter{textcitetotal}{0}
\setcounter{textcitemaxnames}{0}
\setcounter{biburlnumpenalty}{0}
\setcounter{biburlucpenalty}{0}
\setcounter{biburllcpenalty}{0}
\setcounter{smartand}{1}
\setcounter{bbx:relatedcount}{0}
\setcounter{bbx:relatedtotal}{0}
\setcounter{ifsymcnt}{0}
\setcounter{caption@flags}{0}
\setcounter{ContinuedFloat}{0}
\setcounter{@todonotes@numberoftodonotes}{0}
\setcounter{tikztiming@nrows}{0}
\setcounter{tikztimingrows}{0}
\setcounter{tikztimingtrans}{0}
\setcounter{tikztimingtranspos}{0}
\setcounter{theorem}{1}
\setcounter{lstlisting}{0}
\setcounter{section@level}{1}
}
